--Request 
GET https://www.google.com/pagead/attribution/wcm?cc=ZZ&dn=16503197412&cl=irwhCLex05cBEOWDzZMD
Host: www.google.com
sec-ch-ua: \" Not A;Brand\";v=\"99\", \"Chromium\";v=\"90\"
sec-ch-ua-mobile: ?0
User-Agent: Mozilla/5.0 (Linux; Android 6.0.1; Moto G (4) Build/MPJ24.139-64) AppleWebKit/537.36 (KHTML, like Gecko) Chrome/58.0.3029.81 Mobile Safari/537.36 PTST/1
Accept: */*
Origin: null
Sec-Fetch-Site: cross-site
Sec-Fetch-Mode: cors
Sec-Fetch-Dest: empty
Accept-Encoding: gzip, deflate, br
Accept-Language: en-US,en;q=0.9
----
--Response 
HTTP/1.1 200
p3p: policyref=\"https://www.googleadservices.com/pagead/p3p.xml\", CP=\"NOI DEV PSA PSD IVA IVD OTP OUR OTR IND OTC\"
timing-allow-origin: *
cross-origin-resource-policy: cross-origin
content-type: application/json; charset=UTF-8
access-control-allow-origin: null
access-control-allow-credentials: true
x-content-type-options: nosniff
content-disposition: attachment; filename=\"f.txt\"
content-encoding: gzip
date: Fri, 02 Sep 2022 07:00:06 GMT
server: cafe
cache-control: private
content-length: 87
x-xss-protection: 0
alt-svc: h3=\":443\"; ma=2592000,h3-29=\":443\"; ma=2592000,h3-Q050=\":443\"; ma=2592000,h3-Q046=\":443\"; ma=2592000,h3-Q043=\":443\"; ma=2592000,quic=\":443\"; ma=2592000; v=\"46,43\"
----
--Request 
GET https://prod.artibotcdn.com/launcher.4514.js
Host: prod.artibotcdn.com
sec-ch-ua: \" Not A;Brand\";v=\"99\", \"Chromium\";v=\"90\"
sec-ch-ua-mobile: ?0
User-Agent: Mozilla/5.0 (Linux; Android 6.0.1; Moto G (4) Build/MPJ24.139-64) AppleWebKit/537.36 (KHTML, like Gecko) Chrome/58.0.3029.81 Mobile Safari/537.36 PTST/1
Accept: */*
Sec-Fetch-Site: cross-site
Sec-Fetch-Mode: no-cors
Sec-Fetch-Dest: script
Accept-Encoding: gzip, deflate, br
Accept-Language: en-US,en;q=0.9
----
--Response 
HTTP/1.1 200
date: Fri, 02 Sep 2022 06:59:20 GMT
content-type: application/javascript; charset=utf-8
cache-control: public, max-age=31536000
last-modified: Tue, 12 Oct 2021 19:43:23 GMT
x-amz-version-id: null
etag: W/\"7deaa8108362bbdd03720d8b30e9dc39\"
vary: Accept-Encoding
x-cache: Hit from cloudfront
via: 1.1 64e24cad8b52037c4c824ec57b5995bf.cloudfront.net (CloudFront)
x-amz-cf-pop: LAX50-C3
x-amz-cf-id: eFa_DPiTZObM9sz_fEspCLqjNh53xYLJo5PtcgsvANHd5oiom0pkrA==
age: 24929076
cf-cache-status: HIT
report-to: {\"endpoints\":[{\"url\":\"https:\\/\\/a.nel.cloudflare.com\\/report\\/v3?s=LPVsCojhtGo7S8vZi%2FsveDHsAVzNp7RzM8%2BFuMqSFly4jQt5f2%2F4gq3Q4RxMGB%2BfFfgYXfgIS%2Fq4aQXFVLjgANhuvizqjfxpFspfwL9MsQJHpO4WsXIrUclDzuss1WXRt21rFiOq\"}],\"group\":\"cf-nel\",\"max_age\":604800}
nel: {\"success_fraction\":0,\"report_to\":\"cf-nel\",\"max_age\":604800}
server: cloudflare
cf-ray: 74445cc1eb0a7b19-LAX
content-encoding: br
alt-svc: h3=\":443\"; ma=86400, h3-29=\":443\"; ma=86400
----

