<svg xmlns="http://www.w3.org/2000/svg" width="24px" height="24px" viewBox="0 0 24 24" fill="#757575">
    <path d="M20 20c0 1.1-.9 2-2 2H4c-1.1 0-2-.9-2-2V6c0-1.1.9-2 2-2h5.5c-.3.8-.5 1.6-.5 2.5 0 3.6 2.9 6.5 6.5 6.5.8 0 1.5-.1 2.1-.4L20 15v5zm-.7-11.1c.4-.7.7-1.5.7-2.4C20 4 18 2 15.5 2S11 4 11 6.5s2 4.5 4.5 4.5c.9 0 1.7-.3 2.4-.7l3.1 3.1 1.4-1.4-3.1-3.1zm-3.8.1C14.1 9 13 7.9 13 6.5S14.1 4 15.5 4 18 5.1 18 6.5 16.9 9 15.5 9z"/>
</svg>
<svg xmlns="http://www.w3.org/2000/svg" width="24px" height="24px" viewBox="0 0 24 24" fill="#757575">
    <path d="M20 20c0 1.1-.9 2-2 2H4c-1.1 0-2-.9-2-2V6c0-1.1.9-2 2-2h5.5c-.3.8-.5 1.6-.5 2.5 0 3.6 2.9 6.5 6.5 6.5.8 0 1.5-.1 2.1-.4L20 15v5zm-.7-11.1c.4-.7.7-1.5.7-2.4C20 4 18 2 15.5 2S11 4 11 6.5s2 4.5 4.5 4.5c.9 0 1.7-.3 2.4-.7l3.1 3.1 1.4-1.4-3.1-3.1zm-3.8.1C14.1 9 13 7.9 13 6.5S14.1 4 15.5 4 18 5.1 18 6.5 16.9 9 15.5 9z"/>
</svg>
<svg xmlns="http://www.w3.org/2000/svg" width="24px" height="24px" viewBox="0 0 24 24" fill="#757575">
    <path d="M20 20c0 1.1-.9 2-2 2H4c-1.1 0-2-.9-2-2V6c0-1.1.9-2 2-2h5.5c-.3.8-.5 1.6-.5 2.5 0 3.6 2.9 6.5 6.5 6.5.8 0 1.5-.1 2.1-.4L20 15v5zm-.7-11.1c.4-.7.7-1.5.7-2.4C20 4 18 2 15.5 2S11 4 11 6.5s2 4.5 4.5 4.5c.9 0 1.7-.3 2.4-.7l3.1 3.1 1.4-1.4-3.1-3.1zm-3.8.1C14.1 9 13 7.9 13 6.5S14.1 4 15.5 4 18 5.1 18 6.5 16.9 9 15.5 9z"/>
</svg>
