--Request 
POST https://play.google.com/log?format=json&hasfast=true
Host: play.google.com
sec-ch-ua: \" Not A;Brand\";v=\"99\", \"Chromium\";v=\"90\"
sec-ch-ua-mobile: ?0
User-Agent: Mozilla/5.0 (Windows NT 10.0; WOW64) AppleWebKit/537.36 (KHTML, like Gecko) Chrome/90.0.4430.93 Safari/537.36
Content-Type: application/x-www-form-urlencoded;charset=UTF-8
Accept: */*
Origin: https://www.google.com
X-Client-Data: CKGOywE=
Sec-Fetch-Site: same-site
Sec-Fetch-Mode: cors
Sec-Fetch-Dest: empty
Referer: https://www.google.com/
Accept-Encoding: gzip, deflate, br
Accept-Language: en-GB,en-US;q=0.9,en;q=0.8
Cookie: 1P_JAR=2022-08-29-07; AEC=AakniGOHU8jlkBpkm8pxovYIbhg_lABjr31upBZWIBiZEjtihXngvxLshg; NID=511=tcpRHP3xC4x2n8HB1nrUxV0xAIVxHGh0qAvI9Pxy_mk_G9Ti6aD8fwZdmeast5jMWyfwMBvZEJ_w1Eo0wB-U9kXqdwqy-_5Htji-J8VFKh6P_2iAiSVAEhSra-sXFm_6M9p3oCUHCDtlfx3nLBuqRZl0ZbfIXj2wR0t80nOoFgs; OGPC=19027681-1:
----
 POSTDATA [[1,null,null,null,null,null,null,null,null,null,[null,null,null,null,"en-IN"]],373,[["1661758317372",null,[],null,null,null,null,"[108,40400,538,1,\"469070501.0\",\"amsMY8yXDPCo1sQPqpKm6A4\",null,null,null,\"en\",\"IND\",0,8,1869,null,false,false,null,\"og-826fbb5d-5ac4-4c9f-a078-5a1f9a998231\",null,null,null,null,null,null,null,0,null,null,null,19028915,null,null,true,null,false,[1],1,null,null,null,null,null,null,null,null,null,true,null,[false,2],null,null,null,null,false,null,[2,5,\"cg\",281]]",null,null,null,null,null,null,-19800,[null,[],null,"[[],[],[3700949],[]]"],null,null,null,[],1,null,null,null,null,null,[]],["1661758317376",null,[],null,null,null,null,"[107,40400,538,1,\"469070501.0\",\"amsMY8yXDPCo1sQPqpKm6A4\",null,null,null,\"en\",\"IND\",0,8,1873,null,false,false,null,\"og-826fbb5d-5ac4-4c9f-a078-5a1f9a998231\",null,null,null,null,null,null,null,8,null,null,null,19028915,null,null,true,null,false,[2],2,null,null,null,null,null,null,null,null,null,true,null,[false,2],null,null,null,null,false,null,[2,5,\"cg\",281]]",null,null,null,null,null,null,-19800,[null,[],null,"[[],[],[3700949],[]]"],null,null,null,[],2,null,null,null,null,null,[]],["1661758317726",null,[],null,null,null,null,"[109,40400,538,1,\"469070501.0\",\"amsMY8yXDPCo1sQPqpKm6A4\",null,null,null,\"en\",\"IND\",0,8,2223,null,false,false,null,\"og-826fbb5d-5ac4-4c9f-a078-5a1f9a998231\",null,null,null,null,null,null,null,32936,null,null,null,19028915,null,null,true,null,false,[3],3,null,null,null,null,null,null,null,null,null,true,null,[false,2],null,null,null,null,false,null,[2,5,\"cg\",281]]",null,null,null,null,null,null,-19800,[null,[],null,"[[],[],[3700949],[]]"],null,null,null,[],3,null,null,null,null,null,[]],["1661758317732",null,[],null,null,null,null,"[36,40400,538,1,\"469070501.0\",\"amsMY8yXDPCo1sQPqpKm6A4\",null,null,null,\"en\",\"IND\",0,8,2229,null,false,false,null,\"og-826fbb5d-5ac4-4c9f-a078-5a1f9a998231\",null,null,null,null,null,null,null,32938,null,null,null,19028915,null,null,true,null,null,null,4,-1,null,null,null,76,256,1135,1505,null,true,null,[false,2,1,false,false],null,null,null,null,false,null,[2,5,\"cg\",281]]",null,null,null,null,null,null,-19800,[null,[],null,"[[],[],[3700949],[]]"],null,null,null,[],4,null,null,null,null,null,[]]],"1661758318377",[]]
--Response 
HTTP/1.1 200
access-control-allow-origin: https://www.google.com
cross-origin-resource-policy: cross-origin
access-control-allow-credentials: true
access-control-allow-headers: X-Playlog-Web
content-type: text/plain; charset=UTF-8
content-encoding: gzip
date: Mon, 29 Aug 2022 07:31:56 GMT
server: Playlog
cache-control: private
content-length: 129
x-xss-protection: 0
x-frame-options: SAMEORIGIN
alt-svc: h3=\":443\"; ma=2592000,h3-29=\":443\"; ma=2592000,h3-Q050=\":443\"; ma=2592000,h3-Q046=\":443\"; ma=2592000,h3-Q043=\":443\"; ma=2592000,quic=\":443\"; ma=2592000; v=\"46,43\"
----

