--Request 
POST https://bf27853irn.bf.dynatrace.com/bf?type=js3&sn=v_4_srv_4_sn_IV7VUE896KFTV6I5O956PBOGGHT16VT8_app-3A06d81dff759102c9_1_ol_0_perc_100000_mul_1&svrid=4&flavor=cors&vi=WTUPVSMATRRKAKRNEWGKSAFKUOLSQPEJ-0&modifiedSince=1662094650929&rf=https%3A%2F%2Fm.kohls.com%2F&bp=3&app=06d81dff759102c9&crc=2693839218&en=ldtlho0d&end=1
Host: bf27853irn.bf.dynatrace.com
sec-ch-ua: \" Not A;Brand\";v=\"99\", \"Chromium\";v=\"90\"
sec-ch-ua-mobile: ?0
User-Agent: Mozilla/5.0 (Linux; Android 6.0.1; Moto G (4) Build/MPJ24.139-64) AppleWebKit/537.36 (KHTML, like Gecko) Chrome/58.0.3029.81 Mobile Safari/537.36 PTST/1
Content-Type: text/plain;charset=UTF-8
Accept: */*
Origin: https://m.kohls.com
Sec-Fetch-Site: cross-site
Sec-Fetch-Mode: cors
Sec-Fetch-Dest: empty
Referer: https://m.kohls.com/
Accept-Encoding: gzip, deflate, br
Accept-Language: en-US,en;q=0.9
----
--Response 
HTTP/1.1 200
date: Fri, 02 Sep 2022 10:04:25 GMT
content-type: text/plain;charset=utf-8
content-length: 209
set-cookie: dtCookie=v_4_srv_12_sn_EA681DD68C3BDA68A95808700A8154E4_perc_100000_ol_0_mul_1_app-3Aea7c4b59f27d43eb_1; Path=/; Domain=.dynatrace.com
x-oneagent-js-injection: true
access-control-allow-origin: https://m.kohls.com
cache-control: no-cache
----

--Response 
HTTP/1.1 302
p3p: policyref=\"https://googleads.g.doubleclick.net/pagead/gcn_p3p_.xml\", CP=\"CURa ADMa DEVa TAIo PSAo PSDo OUR IND UNI PUR INT DEM STA PRE COM NAV OTC NOI DSP COR\"
timing-allow-origin: *
cross-origin-resource-policy: cross-origin
date: Fri, 02 Sep 2022 10:04:25 GMT
pragma: no-cache
expires: Fri, 01 Jan 1990 00:00:00 GMT
cache-control: no-cache, must-revalidate
location: https://www.google.com/pagead/1p-user-list/1018012790/?guid=ON&data=aam=10263239&is_vtc=1&random=3721635788
content-type: image/gif
x-content-type-options: nosniff
server: cafe
content-length: 42
x-xss-protection: 0
alt-svc: h3=\":443\"; ma=2592000,h3-29=\":443\"; ma=2592000,h3-Q050=\":443\"; ma=2592000,h3-Q046=\":443\"; ma=2592000,h3-Q043=\":443\"; ma=2592000,quic=\":443\"; ma=2592000; v=\"46,43\"
----
--Request 
GET https://www.google.com/pagead/1p-user-list/1018012790/?guid=ON&data=aam=10263239&is_vtc=1&random=3721635788
Host: www.google.com
sec-ch-ua: \" Not A;Brand\";v=\"99\", \"Chromium\";v=\"90\"
sec-ch-ua-mobile: ?0
User-Agent: Mozilla/5.0 (Linux; Android 6.0.1; Moto G (4) Build/MPJ24.139-64) AppleWebKit/537.36 (KHTML, like Gecko) Chrome/58.0.3029.81 Mobile Safari/537.36 PTST/1
Accept: image/avif,image/webp,image/apng,image/svg+xml,image/*,*/*;q=0.8
Sec-Fetch-Site: cross-site
Sec-Fetch-Mode: no-cors
Sec-Fetch-Dest: image
Referer: https://kohls.demdex.net/
Accept-Encoding: gzip, deflate, br
Accept-Language: en-US,en;q=0.9
----
--Response 
HTTP/1.1 200
p3p: policyref=\"https://www.googleadservices.com/pagead/p3p.xml\", CP=\"NOI DEV PSA PSD IVA IVD OTP OUR OTR IND OTC\"
timing-allow-origin: *
cross-origin-resource-policy: cross-origin
date: Fri, 02 Sep 2022 10:04:25 GMT
pragma: no-cache
expires: Fri, 01 Jan 1990 00:00:00 GMT
cache-control: no-cache, no-store, must-revalidate
content-type: image/gif
content-security-policy: script-src 'none'; object-src 'none'
x-content-type-options: nosniff
server: cafe
content-length: 42
x-xss-protection: 0
alt-svc: h3=\":443\"; ma=2592000,h3-29=\":443\"; ma=2592000,h3-Q050=\":443\"; ma=2592000,h3-Q046=\":443\"; ma=2592000,h3-Q043=\":443\"; ma=2592000,quic=\":443\"; ma=2592000; v=\"46,43\"
----

