--Request 
POST https://htlb.casalemedia.com/cygnus?s=189641
Host: htlb.casalemedia.com
sec-ch-ua: \" Not A;Brand\";v=\"99\", \"Chromium\";v=\"90\"
sec-ch-ua-mobile: ?0
User-Agent: Mozilla/5.0 (Linux; Android 6.0.1; Moto G (4) Build/MPJ24.139-64) AppleWebKit/537.36 (KHTML, like Gecko) Chrome/58.0.3029.81 Mobile Safari/537.36 PTST/1
Content-Type: text/plain
Accept: */*
Origin: https://m.kohls.com
Sec-Fetch-Site: cross-site
Sec-Fetch-Mode: cors
Sec-Fetch-Dest: empty
Referer: https://m.kohls.com/
Accept-Encoding: gzip, deflate, br
Accept-Language: en-US,en;q=0.9
----
--Response 
HTTP/1.1 200
date: Fri, 02 Sep 2022 10:03:43 GMT
content-type: application/json
content-length: 30
cf-ray: 74456adadb3e7a90-LAX
access-control-allow-origin: https://m.kohls.com
cache-control: no-cache
expires: 0
cf-cache-status: DYNAMIC
access-control-allow-credentials: true
pragma: no-cache
report-to: {\"endpoints\":[{\"url\":\"https:\\/\\/a.nel.cloudflare.com\\/report\\/v3?s=QVl0bqjMlR7gVR3eWHiui2KViZroBw8eIDEPLYxZ1rX8dDuQ5skyO7gBuKMdaPLv9XiCQH6lkU7l8K8Z7np0z09EwxJU8n6oz29z%2BsR%2BU3KrgGSU2gQI%2FAxePyh2BzyCc3Hqx3jn\"}],\"group\":\"cf-nel\",\"max_age\":604800}
nel: {\"success_fraction\":0.01,\"report_to\":\"cf-nel\",\"max_age\":604800}
vary: Accept-Encoding
server: cloudflare
alt-svc: h3=\":443\"; ma=86400, h3-29=\":443\"; ma=86400
----
--Request 
GET https://dpm.demdex.net/ibs:dpid=3047&dpuuid=53588F2D83C0A9&gdpr=0&gdpr_consent=
Host: dpm.demdex.net
sec-ch-ua: \" Not A;Brand\";v=\"99\", \"Chromium\";v=\"90\"
sec-ch-ua-mobile: ?0
User-Agent: Mozilla/5.0 (Linux; Android 6.0.1; Moto G (4) Build/MPJ24.139-64) AppleWebKit/537.36 (KHTML, like Gecko) Chrome/58.0.3029.81 Mobile Safari/537.36 PTST/1
Accept: image/avif,image/webp,image/apng,image/svg+xml,image/*,*/*;q=0.8
Sec-Fetch-Site: cross-site
Sec-Fetch-Mode: no-cors
Sec-Fetch-Dest: image
Referer: https://kohls.demdex.net/
Accept-Encoding: gzip, deflate, br
Accept-Language: en-US,en;q=0.9
Cookie: dextp=21-1-1662113021196|60-1-1662113021311|358-1-1662113021413|477-1-1662113021522|601-1-1662113021624|640-1-1662113021758|771-1-1662113021862|822-1-1662113021964|992-1-1662113022065|1123-1-1662113022170|1083-1-1662113022277|1085-1-1662113022380|1086-1-1662113022488|1087-1-1662113022601|1088-1-1662113022710|903-1-1662113022811|20-1-1662113022952|3047-1-1662113023090|28645-1-1662113023244
----
--Response 
HTTP/1.1 302 Found
Cache-Control: no-cache,no-store,must-revalidate,max-age=0,proxy-revalidate,no-transform,private
DCS: dcs-prod-va6-2-v038-059eb98c7.edge-va6.demdex.com 0 ms
Expires: Thu, 01 Jan 1970 00:00:00 UTC
Location: https://dpm.demdex.net/demconf.jpg?et:ibs%7cdata:dpid=3047&dpuuid=53588F2D83C0A9&gdpr=0&gdpr_consent=
P3P: policyref=\"/w3c/p3p.xml\", CP=\"NOI NID CURa ADMa DEVa PSAa PSDa OUR SAMa BUS PUR COM NAV INT\"
Pragma: no-cache
set-cookie: demdex=70424473918603454193520819726756004598; Max-Age=15552000; Expires=Wed, 01 Mar 2023 10:03:43 GMT; Path=/; Domain=.demdex.net
Strict-Transport-Security: max-age=31536000; includeSubDomains
X-TID: LD4J/ZLTTXI=
Content-Length: 0
Connection: keep-alive
----
--Request 
GET https://cm.everesttech.net/cm/ax?cookieid=&ev_rs=1&url=/1x1&google_gid=CAESEF5-10mp_fsmZcO_15xnTy0&google_cver=1
Host: cm.everesttech.net
sec-ch-ua: \" Not A;Brand\";v=\"99\", \"Chromium\";v=\"90\"
sec-ch-ua-mobile: ?0
User-Agent: Mozilla/5.0 (Linux; Android 6.0.1; Moto G (4) Build/MPJ24.139-64) AppleWebKit/537.36 (KHTML, like Gecko) Chrome/58.0.3029.81 Mobile Safari/537.36 PTST/1
Accept: image/avif,image/webp,image/apng,image/svg+xml,image/*,*/*;q=0.8
Sec-Fetch-Site: cross-site
Sec-Fetch-Mode: no-cors
Sec-Fetch-Dest: image
Referer: https://kohls.demdex.net/
Accept-Encoding: gzip, deflate, br
Accept-Language: en-US,en;q=0.9
----
--Response 
HTTP/1.1 302
Date: Fri, 02 Sep 2022 10:03:43 GMT
Content-Length: 0
Connection: keep-alive
Set-Cookie: everest_g_v2=g_surferid~YxHU-wAAABwQdgN2; Domain=.everesttech.net; Expires=Sat, 02-Sep-2023 10:03:43 GMT; Path=/
Set-Cookie: everest_session_v2=YxHU-wAAABwQdwN2; Domain=.everesttech.net; Path=/
P3P: CP=\"NOI NID DEVa PSAa PSDa OUR IND PUR COM NAV INT DEM\"
Cache-Control: no-cache
Location: https://cm.g.doubleclick.net/pixel?google_nid=everest&google_cm&google_sc&ev_rs=1&url=/1x1&google_hm=WXhIVS13QUFBQndRZGdOMg
Server: AMO-cookiemap/1.1
----
--Request 
GET https://cm.g.doubleclick.net/pixel?google_nid=everest&google_cm&google_sc&ev_rs=1&url=/1x1&google_hm=WXhIVS13QUFBQndRZGdOMg
Host: cm.g.doubleclick.net
sec-ch-ua: \" Not A;Brand\";v=\"99\", \"Chromium\";v=\"90\"
sec-ch-ua-mobile: ?0
User-Agent: Mozilla/5.0 (Linux; Android 6.0.1; Moto G (4) Build/MPJ24.139-64) AppleWebKit/537.36 (KHTML, like Gecko) Chrome/58.0.3029.81 Mobile Safari/537.36 PTST/1
Accept: image/avif,image/webp,image/apng,image/svg+xml,image/*,*/*;q=0.8
Sec-Fetch-Site: cross-site
Sec-Fetch-Mode: no-cors
Sec-Fetch-Dest: image
Referer: https://kohls.demdex.net/
Accept-Encoding: gzip, deflate, br
Accept-Language: en-US,en;q=0.9
Cookie: IDE=AHWqTUkcFNK6rkGsuQyESkGite_-OosB3jO2d_jmudGsbkFvdo5vkLZAKxyIBtPvW5E
----
--Response 
HTTP/1.1 302
p3p: policyref=\"https://googleads.g.doubleclick.net/pagead/gcn_p3p_.xml\", CP=\"CURa ADMa DEVa TAIo PSAo PSDo OUR IND UNI PUR INT DEM STA PRE COM NAV OTC NOI DSP COR\"
location: https://cm.everesttech.net/cm/ax?cookieid=&ev_rs=1&url=/1x1&google_gid=CAESEF5-10mp_fsmZcO_15xnTy0&google_cver=1
date: Fri, 02 Sep 2022 10:03:43 GMT
pragma: no-cache
expires: Fri, 01 Jan 1990 00:00:00 GMT
cache-control: no-cache, must-revalidate
cross-origin-resource-policy: cross-origin
content-type: text/html; charset=UTF-8
server: HTTP server (unknown)
content-length: 325
x-xss-protection: 0
alt-svc: h3=\":443\"; ma=2592000,h3-29=\":443\"; ma=2592000,h3-Q050=\":443\"; ma=2592000,h3-Q046=\":443\"; ma=2592000,h3-Q043=\":443\"; ma=2592000,quic=\":443\"; ma=2592000; v=\"46,43\"
----

