--Request 
POST https://bat.bing.com/actionp/0?ti=4024145&tm=al001&Ver=2&mid=bfacb451-242e-4eee-8f1a-206225edcb33&sid=8538b9f02aa611ed8309ebe712901205&vid=85392ce02aa611ed9f4de589d105e7b7&vids=1&msclkid=N&evt=pageHide
Host: bat.bing.com
sec-ch-ua: \" Not A;Brand\";v=\"99\", \"Chromium\";v=\"90\"
sec-ch-ua-mobile: ?0
User-Agent: Mozilla/5.0 (Linux; Android 6.0.1; Moto G (4) Build/MPJ24.139-64) AppleWebKit/537.36 (KHTML, like Gecko) Chrome/58.0.3029.81 Mobile Safari/537.36 PTST/1
Content-Type: text/plain;charset=UTF-8
Accept: */*
Origin: https://m.kohls.com
Sec-Fetch-Site: cross-site
Sec-Fetch-Mode: no-cors
Sec-Fetch-Dest: empty
Referer: https://m.kohls.com/
Accept-Encoding: gzip, deflate, br
Accept-Language: en-US,en;q=0.9
Cookie: MUID=1608F87023736BC42C90EA6322F76A0C; MR=0
----
--Response 
HTTP/1.1 204
cache-control: no-cache, must-revalidate
pragma: no-cache
expires: Fri, 01 Jan 1990 00:00:00 GMT
strict-transport-security: max-age=31536000; includeSubDomains; preload
access-control-allow-origin: *
x-cache: CONFIG_NOCACHE
accept-ch: Sec-CH-UA-Arch, Sec-CH-UA-Bitness, Sec-CH-UA-Full-Version, Sec-CH-UA-Mobile, Sec-CH-UA-Model, Sec-CH-UA-Platform, Sec-CH-UA-Platform-Version
x-msedge-ref: Ref A: 01A09139DC1743B086FDAA261C0EC5DD Ref B: PAOEDGE0611 Ref C: 2022-09-02T10:04:27Z
date: Fri, 02 Sep 2022 10:04:26 GMT
----

