--Request 
GET https://tr.snapchat.com/init?pids=99ed79db-3aec-4b85-9a61-ed80a2993b62,8e9bd9e0-8284-4dbd-ab20-145759728098
Host: tr.snapchat.com
sec-ch-ua: \" Not A;Brand\";v=\"99\", \"Chromium\";v=\"90\"
sec-ch-ua-mobile: ?0
User-Agent: Mozilla/5.0 (Linux; Android 6.0.1; Moto G (4) Build/MPJ24.139-64) AppleWebKit/537.36 (KHTML, like Gecko) Chrome/58.0.3029.81 Mobile Safari/537.36 PTST/1
Accept: */*
Origin: https://m.kohls.com
Sec-Fetch-Site: cross-site
Sec-Fetch-Mode: cors
Sec-Fetch-Dest: empty
Referer: https://m.kohls.com/
Accept-Encoding: gzip, deflate, br
Accept-Language: en-US,en;q=0.9
----
--Response 
HTTP/1.1 200
date: Fri, 02 Sep 2022 10:04:33 GMT
access-control-allow-origin: https://m.kohls.com
content-type: application/json
strict-transport-security: max-age=31536000; includeSubDomains; preload
strict-transport-security: max-age=31536000; includeSubDomains
x-envoy-upstream-service-time: 0
content-encoding: gzip
vary: Accept-Encoding
server: API Gateway
via: 1.1 google
alt-svc: h3=\":443\"; ma=2592000,h3-29=\":443\"; ma=2592000,h3-Q050=\":443\"; ma=2592000,h3-Q046=\":443\"; ma=2592000,h3-Q043=\":443\"; ma=2592000,quic=\":443\"; ma=2592000; v=\"46,43\"
----

