--Request 
POST https://async-px.dynamicyield.com/batch?cnst=1&_=1662113021636_652479
Host: async-px.dynamicyield.com
sec-ch-ua: \" Not A;Brand\";v=\"99\", \"Chromium\";v=\"90\"
sec-ch-ua-mobile: ?0
User-Agent: Mozilla/5.0 (Linux; Android 6.0.1; Moto G (4) Build/MPJ24.139-64) AppleWebKit/537.36 (KHTML, like Gecko) Chrome/58.0.3029.81 Mobile Safari/537.36 PTST/1
Content-Type: text/plain;charset=UTF-8
Accept: */*
Origin: https://m.kohls.com
Sec-Fetch-Site: cross-site
Sec-Fetch-Mode: no-cors
Sec-Fetch-Dest: empty
Referer: https://m.kohls.com/
Accept-Encoding: gzip, deflate, br
Accept-Language: en-US,en;q=0.9
Cookie: DYID=-1233986090078972675; DYSES=843ba9d01f557091cd7796a12350eadd
----
--Response 
HTTP/1.1 200
content-length: 0
date: Fri, 02 Sep 2022 10:03:41 GMT
access-control-allow-origin: *
access-control-allow-methods: POST, GET, OPTIONS
access-control-allow-headers: Content-Type, Authorization, Content-Length, X-Requested-With
x-cache: Miss from cloudfront
via: 1.1 eaf5cf20e530df46eabc6f43f9564604.cloudfront.net (CloudFront)
x-amz-cf-pop: LAX3-C4
x-amz-cf-id: KlA0mZXlQlqYPahF7jhGIuhZXn7dIF64v5r3OOCX-r1dRPzUD2nMHg==
----
--Request 
GET https://media.kohlsimg.com/is/image/kohls/20220901-D-HP-KMN-RayBanBanner
Host: media.kohlsimg.com
sec-ch-ua: \" Not A;Brand\";v=\"99\", \"Chromium\";v=\"90\"
sec-ch-ua-mobile: ?0
User-Agent: Mozilla/5.0 (Linux; Android 6.0.1; Moto G (4) Build/MPJ24.139-64) AppleWebKit/537.36 (KHTML, like Gecko) Chrome/58.0.3029.81 Mobile Safari/537.36 PTST/1
Accept: image/avif,image/webp,image/apng,image/svg+xml,image/*,*/*;q=0.8
Sec-Fetch-Site: cross-site
Sec-Fetch-Mode: no-cors
Sec-Fetch-Dest: image
Referer: https://m.kohls.com/
Accept-Encoding: gzip, deflate, br
Accept-Language: en-US,en;q=0.9
----
--Response 
HTTP/1.1 200
content-type: image/webp
content-length: 8762
access-control-allow-origin: *
last-modified: Mon, 29 Aug 2022 17:32:47 GMT
etag: \"c0cc531c4d43012bbe3561f3e1cf45f6\"
-x-adobe-smart-imaging: 5921
timing-allow-origin: *
server: Unknown
strict-transport-security: max-age=31536000; includeSubDomains
expires: Thu, 08 Sep 2022 05:01:09 GMT
date: Fri, 02 Sep 2022 10:03:41 GMT
----
--Request 
GET https://async-px.dynamicyield.com/var?cnst=1&_=957504&uid=-1233986090078972675&sec=8776374&t=ri&e=1245855&p=1&ve=11044797&va=%5B27049604%5D&ses=5b3e117ce067eeb99b2b5b268b908b68&expSes=71849&aud=1408117.1438654.1362538.1362542.1468187&expVisitId=-5734382003904465510&mech=1&smech=null&eri=1&tsrc=Direct&reqts=1662113021655&rri=1879711
Host: async-px.dynamicyield.com
sec-ch-ua: \" Not A;Brand\";v=\"99\", \"Chromium\";v=\"90\"
sec-ch-ua-mobile: ?0
User-Agent: Mozilla/5.0 (Linux; Android 6.0.1; Moto G (4) Build/MPJ24.139-64) AppleWebKit/537.36 (KHTML, like Gecko) Chrome/58.0.3029.81 Mobile Safari/537.36 PTST/1
Accept: */*
Origin: https://m.kohls.com
Sec-Fetch-Site: cross-site
Sec-Fetch-Mode: cors
Sec-Fetch-Dest: empty
Referer: https://m.kohls.com/
Accept-Encoding: gzip, deflate, br
Accept-Language: en-US,en;q=0.9
----
--Response 
HTTP/1.1 200
content-length: 0
date: Fri, 02 Sep 2022 10:03:41 GMT
access-control-allow-origin: *
access-control-allow-methods: POST, GET, OPTIONS
access-control-allow-headers: Content-Type, Authorization, Content-Length, X-Requested-With
x-cache: Miss from cloudfront
via: 1.1 fc54bffb3256e6532eca782a83771272.cloudfront.net (CloudFront)
x-amz-cf-pop: LAX3-C4
x-amz-cf-id: Dsk0sW9vJ_nuPxQnL5oQxc3QnfxegUUTekM-1hyKWdam_FjQ6DWphQ==
----

