--Request 
POST https://htlb.casalemedia.com/cygnus?s=189641
Host: htlb.casalemedia.com
sec-ch-ua: \" Not A;Brand\";v=\"99\", \"Chromium\";v=\"90\"
sec-ch-ua-mobile: ?0
User-Agent: Mozilla/5.0 (Linux; Android 6.0.1; Moto G (4) Build/MPJ24.139-64) AppleWebKit/537.36 (KHTML, like Gecko) Chrome/58.0.3029.81 Mobile Safari/537.36 PTST/1
Content-Type: text/plain
Accept: */*
Origin: https://m.kohls.com
Sec-Fetch-Site: cross-site
Sec-Fetch-Mode: cors
Sec-Fetch-Dest: empty
Referer: https://m.kohls.com/
Accept-Encoding: gzip, deflate, br
Accept-Language: en-US,en;q=0.9
----
--Response 
HTTP/1.1 200
date: Fri, 02 Sep 2022 10:04:30 GMT
content-type: application/json
content-length: 30
cf-ray: 74456bff6fc27ad1-LAX
access-control-allow-origin: https://m.kohls.com
cache-control: no-cache
expires: 0
cf-cache-status: DYNAMIC
access-control-allow-credentials: true
pragma: no-cache
report-to: {\"endpoints\":[{\"url\":\"https:\\/\\/a.nel.cloudflare.com\\/report\\/v3?s=P69uWwmULsbBqwnGd2gIdPbSV2EZYpFbR8nXTZFLGcLAQjlPSVguJPGhak5qBtxLlQeMe2pNoBLtURTlDrZwaV2nQwyXvpKJXTDBUDtO5vpBYqp01cYElJoEB95KrsDEyfjHrARQ\"}],\"group\":\"cf-nel\",\"max_age\":604800}
nel: {\"success_fraction\":0.01,\"report_to\":\"cf-nel\",\"max_age\":604800}
vary: Accept-Encoding
server: cloudflare
alt-svc: h3=\":443\"; ma=86400, h3-29=\":443\"; ma=86400
----
--Request 
GET https://b-code.liadm.com/a-00oc.min.js
Host: b-code.liadm.com
sec-ch-ua: \" Not A;Brand\";v=\"99\", \"Chromium\";v=\"90\"
sec-ch-ua-mobile: ?0
User-Agent: Mozilla/5.0 (Linux; Android 6.0.1; Moto G (4) Build/MPJ24.139-64) AppleWebKit/537.36 (KHTML, like Gecko) Chrome/58.0.3029.81 Mobile Safari/537.36 PTST/1
Accept: */*
Sec-Fetch-Site: cross-site
Sec-Fetch-Mode: no-cors
Sec-Fetch-Dest: script
Referer: https://m.kohls.com/
Accept-Encoding: gzip, deflate, br
Accept-Language: en-US,en;q=0.9
----
--Response 
HTTP/1.1 200
content-type: application/javascript
date: Thu, 01 Sep 2022 11:50:42 GMT
cache-control: public, max-age=86400
content-encoding: gzip
vary: Accept-Encoding
x-cache: Hit from cloudfront
via: 1.1 6ae304c394ca48eaeac474c114a24c88.cloudfront.net (CloudFront)
x-amz-cf-pop: LAX3-C3
x-amz-cf-id: 1ESpVo9Pqy0dBFu3g7RsKozLUYkTxZDXUu7UAwO-tzrhiF_47kbI5A==
age: 79982
----
--Request 
GET https://assets.adobedtm.com/6d2e783bbfe3/c0c47c5c96c6/1820b14411e2/RC37be6c799a1548d8ba6c480cbbd4cac4-source.min.js
Host: assets.adobedtm.com
sec-ch-ua: \" Not A;Brand\";v=\"99\", \"Chromium\";v=\"90\"
sec-ch-ua-mobile: ?0
User-Agent: Mozilla/5.0 (Linux; Android 6.0.1; Moto G (4) Build/MPJ24.139-64) AppleWebKit/537.36 (KHTML, like Gecko) Chrome/58.0.3029.81 Mobile Safari/537.36 PTST/1
Accept: */*
Sec-Fetch-Site: cross-site
Sec-Fetch-Mode: no-cors
Sec-Fetch-Dest: script
Referer: https://m.kohls.com/
Accept-Encoding: gzip, deflate, br
Accept-Language: en-US,en;q=0.9
----
--Response 
HTTP/1.1 200
accept-ranges: bytes
content-type: application/x-javascript
etag: \"5b43cf54950343075e0b2b63e9847b29:1660857495.609562\"
last-modified: Thu, 18 Aug 2022 21:18:15 GMT
server: AkamaiNetStorage
vary: Accept-Encoding
content-encoding: gzip
content-length: 400
cache-control: max-age=3600
expires: Fri, 02 Sep 2022 11:03:44 GMT
date: Fri, 02 Sep 2022 10:03:44 GMT
access-control-allow-origin: https://m.kohls.com
timing-allow-origin: *
----
--Request 
GET https://securepubads.g.doubleclick.net/gampad/ads?pvsid=556331592190720&correlator=1611472612085384&eid=31069183%2C31069285%2C31069289&output=ldjh&gdfp_req=1&vrg=2022083101&ptt=17&impl=fifs&iu_parts=17763952%2Chomepage&enc_prev_ius=%2F0%2F1&prev_iu_szs=320x50%7C320x50&fluid=height&ifi=3&adks=334370023&sfv=1-0-38&fsapi=false&prev_scp=pos%3Dbottom%26env%3Dprod%26channel%3Dmobile&eri=1&cust_params=pgtype%3Dhome&sc=1&cookie=ID%3D3f5222e9b94a8872%3AT%3D1662113022%3AS%3DALNI_MYK01WomvsjECicEXFc9qIJqjXnpA&gpic=UID%3D00000872ab15fe48%3AT%3D1662113022%3ART%3D1662113022%3AS%3DALNI_MZecWrmURrSjs3dbQD9hWjY5SQ45Q&abxe=1&dt=1662113070151&lmt=1662113070&dlt=1662113067332&idt=2558&adxs=0&adys=10447&biw=1298&bih=361&scr_x=0&scr_y=0&btvi=3&ucis=3&oid=2&u_his=2&u_h=489&u_w=1313&u_ah=489&u_aw=1313&u_cd=24&u_sd=1&u_tz=-300&dmc=8&bc=31&uach=WyJMaW51eCIsIiIsIng4NiIsIiIsIjkwLjAuNDQzMC42MSIsW10sZmFsc2UsbnVsbCwiIixbXSxmYWxzZV0.&nvt=1&url=https%3A%2F%2Fm.kohls.com%2F&ref=https%3A%2F%2Fm.kohls.com%2F&frm=20&vis=1&psz=1298x0&msz=1298x6&fws=132&ohw=1298&ga_vid=1350227648.1662113023&ga_sid=1662113070&ga_hid=2024804943&ga_fc=true
Host: securepubads.g.doubleclick.net
sec-ch-ua: \" Not A;Brand\";v=\"99\", \"Chromium\";v=\"90\"
sec-ch-ua-mobile: ?0
User-Agent: Mozilla/5.0 (Linux; Android 6.0.1; Moto G (4) Build/MPJ24.139-64) AppleWebKit/537.36 (KHTML, like Gecko) Chrome/58.0.3029.81 Mobile Safari/537.36 PTST/1
Accept: */*
Origin: https://m.kohls.com
Sec-Fetch-Site: cross-site
Sec-Fetch-Mode: cors
Sec-Fetch-Dest: empty
Referer: https://m.kohls.com/
Accept-Encoding: gzip, deflate, br
Accept-Language: en-US,en;q=0.9
Cookie: IDE=AHWqTUkcFNK6rkGsuQyESkGite_-OosB3jO2d_jmudGsbkFvdo5vkLZAKxyIBtPvW5E
----
--Response 
HTTP/1.1 200
p3p: policyref=\"https://googleads.g.doubleclick.net/pagead/gcn_p3p_.xml\", CP=\"CURa ADMa DEVa TAIo PSAo PSDo OUR IND UNI PUR INT DEM STA PRE COM NAV OTC NOI DSP COR\"
timing-allow-origin: *
cross-origin-resource-policy: cross-origin
access-control-allow-credentials: true
access-control-allow-origin: https://m.kohls.com
google-lineitem-id: -2
google-creative-id: -2
google-mediationgroup-id: -2
google-mediationtag-id: -2
date: Fri, 02 Sep 2022 10:04:30 GMT
pragma: no-cache
expires: Fri, 01 Jan 1990 00:00:00 GMT
cache-control: no-cache, must-revalidate
content-type: text/plain; charset=UTF-8
x-content-type-options: nosniff
content-encoding: br
server: cafe
content-length: 121
x-xss-protection: 0
alt-svc: h3=\":443\"; ma=2592000,h3-29=\":443\"; ma=2592000,h3-Q050=\":443\"; ma=2592000,h3-Q046=\":443\"; ma=2592000,h3-Q043=\":443\"; ma=2592000,quic=\":443\"; ma=2592000; v=\"46,43\"
----
--Request 
GET https://tpc.googlesyndication.com/sodar/sodar2.js
Host: tpc.googlesyndication.com
sec-ch-ua: \" Not A;Brand\";v=\"99\", \"Chromium\";v=\"90\"
sec-ch-ua-mobile: ?0
User-Agent: Mozilla/5.0 (Linux; Android 6.0.1; Moto G (4) Build/MPJ24.139-64) AppleWebKit/537.36 (KHTML, like Gecko) Chrome/58.0.3029.81 Mobile Safari/537.36 PTST/1
Accept: */*
Sec-Fetch-Site: cross-site
Sec-Fetch-Mode: no-cors
Sec-Fetch-Dest: script
Referer: https://m.kohls.com/
Accept-Encoding: gzip, deflate, br
Accept-Language: en-US,en;q=0.9
----
--Response 
HTTP/1.1 200
accept-ranges: bytes
vary: Accept-Encoding
content-encoding: gzip
content-type: text/javascript
cross-origin-resource-policy: cross-origin
cross-origin-opener-policy: same-origin; report-to=\"adspam-signals-scs\"
report-to: {\"group\":\"adspam-signals-scs\",\"max_age\":2592000,\"endpoints\":[{\"url\":\"https://csp.withgoogle.com/csp/report-to/adspam-signals-scs\"}]}
content-length: 6386
date: Fri, 02 Sep 2022 10:03:43 GMT
expires: Fri, 02 Sep 2022 10:03:43 GMT
cache-control: private, max-age=3000
etag: \"1637097310169751\"
x-content-type-options: nosniff
server: sffe
x-xss-protection: 0
alt-svc: h3=\":443\"; ma=2592000,h3-29=\":443\"; ma=2592000,h3-Q050=\":443\"; ma=2592000,h3-Q046=\":443\"; ma=2592000,h3-Q043=\":443\"; ma=2592000,quic=\":443\"; ma=2592000; v=\"46,43\"
----
--Request 
GET https://googleads.g.doubleclick.net/pagead/viewthroughconversion/1018012790/?guid=ON&;script=0&data=aam=10263239
Host: googleads.g.doubleclick.net
sec-ch-ua: \" Not A;Brand\";v=\"99\", \"Chromium\";v=\"90\"
sec-ch-ua-mobile: ?0
User-Agent: Mozilla/5.0 (Linux; Android 6.0.1; Moto G (4) Build/MPJ24.139-64) AppleWebKit/537.36 (KHTML, like Gecko) Chrome/58.0.3029.81 Mobile Safari/537.36 PTST/1
Accept: image/avif,image/webp,image/apng,image/svg+xml,image/*,*/*;q=0.8
Sec-Fetch-Site: cross-site
Sec-Fetch-Mode: no-cors
Sec-Fetch-Dest: image
Referer: https://kohls.demdex.net/
Accept-Encoding: gzip, deflate, br
Accept-Language: en-US,en;q=0.9
Cookie: IDE=AHWqTUkcFNK6rkGsuQyESkGite_-OosB3jO2d_jmudGsbkFvdo5vkLZAKxyIBtPvW5E
----
--Response 
HTTP/1.1 302
p3p: policyref=\"https://googleads.g.doubleclick.net/pagead/gcn_p3p_.xml\", CP=\"CURa ADMa DEVa TAIo PSAo PSDo OUR IND UNI PUR INT DEM STA PRE COM NAV OTC NOI DSP COR\"
timing-allow-origin: *
cross-origin-resource-policy: cross-origin
date: Fri, 02 Sep 2022 10:04:30 GMT
pragma: no-cache
expires: Fri, 01 Jan 1990 00:00:00 GMT
cache-control: no-cache, must-revalidate
location: https://www.google.com/pagead/1p-user-list/1018012790/?guid=ON&data=aam=10263239&is_vtc=1&random=4104193889
content-type: image/gif
x-content-type-options: nosniff
server: cafe
content-length: 42
x-xss-protection: 0
alt-svc: h3=\":443\"; ma=2592000,h3-29=\":443\"; ma=2592000,h3-Q050=\":443\"; ma=2592000,h3-Q046=\":443\"; ma=2592000,h3-Q043=\":443\"; ma=2592000,quic=\":443\"; ma=2592000; v=\"46,43\"
----
--Request 
GET https://securepubads.g.doubleclick.net/gampad/ads?pvsid=556331592190720&correlator=3663313943661137&eid=31069183%2C31069285%2C31069289&output=ldjh&gdfp_req=1&vrg=2022083101&ptt=17&impl=fifs&iu_parts=17763952%2Chomepage&enc_prev_ius=%2F0%2F1&prev_iu_szs=320x50%7C320x50&fluid=height&ifi=4&adks=334369881&sfv=1-0-38&fsapi=false&prev_scp=pos%3Dtop%26env%3Dprod%26channel%3Dmobile&eri=1&cust_params=pgtype%3Dhome&sc=1&cookie=ID%3D3f5222e9b94a8872%3AT%3D1662113022%3AS%3DALNI_MYK01WomvsjECicEXFc9qIJqjXnpA&gpic=UID%3D00000872ab15fe48%3AT%3D1662113022%3ART%3D1662113022%3AS%3DALNI_MZecWrmURrSjs3dbQD9hWjY5SQ45Q&abxe=1&dt=1662113070177&lmt=1662113070&dlt=1662113067332&idt=2558&adxs=0&adys=10447&biw=1298&bih=361&scr_x=0&scr_y=0&btvi=4&ucis=4&oid=2&u_his=2&u_h=489&u_w=1313&u_ah=489&u_aw=1313&u_cd=24&u_sd=1&u_tz=-300&dmc=8&bc=31&uach=WyJMaW51eCIsIiIsIng4NiIsIiIsIjkwLjAuNDQzMC42MSIsW10sZmFsc2UsbnVsbCwiIixbXSxmYWxzZV0.&nvt=1&url=https%3A%2F%2Fm.kohls.com%2F&ref=https%3A%2F%2Fm.kohls.com%2F&frm=20&vis=1&psz=1298x0&msz=1298x6&fws=132&ohw=1298&ga_vid=1350227648.1662113023&ga_sid=1662113070&ga_hid=2024804943&ga_fc=true
Host: securepubads.g.doubleclick.net
sec-ch-ua: \" Not A;Brand\";v=\"99\", \"Chromium\";v=\"90\"
sec-ch-ua-mobile: ?0
User-Agent: Mozilla/5.0 (Linux; Android 6.0.1; Moto G (4) Build/MPJ24.139-64) AppleWebKit/537.36 (KHTML, like Gecko) Chrome/58.0.3029.81 Mobile Safari/537.36 PTST/1
Accept: */*
Origin: https://m.kohls.com
Sec-Fetch-Site: cross-site
Sec-Fetch-Mode: cors
Sec-Fetch-Dest: empty
Referer: https://m.kohls.com/
Accept-Encoding: gzip, deflate, br
Accept-Language: en-US,en;q=0.9
Cookie: IDE=AHWqTUkcFNK6rkGsuQyESkGite_-OosB3jO2d_jmudGsbkFvdo5vkLZAKxyIBtPvW5E
----
--Response 
HTTP/1.1 200
p3p: policyref=\"https://googleads.g.doubleclick.net/pagead/gcn_p3p_.xml\", CP=\"CURa ADMa DEVa TAIo PSAo PSDo OUR IND UNI PUR INT DEM STA PRE COM NAV OTC NOI DSP COR\"
timing-allow-origin: *
cross-origin-resource-policy: cross-origin
access-control-allow-credentials: true
access-control-allow-origin: https://m.kohls.com
google-lineitem-id: -2
google-creative-id: -2
google-mediationgroup-id: -2
google-mediationtag-id: -2
date: Fri, 02 Sep 2022 10:04:30 GMT
pragma: no-cache
expires: Fri, 01 Jan 1990 00:00:00 GMT
cache-control: no-cache, must-revalidate
content-type: text/plain; charset=UTF-8
x-content-type-options: nosniff
content-encoding: br
server: cafe
content-length: 120
x-xss-protection: 0
alt-svc: h3=\":443\"; ma=2592000,h3-29=\":443\"; ma=2592000,h3-Q050=\":443\"; ma=2592000,h3-Q046=\":443\"; ma=2592000,h3-Q043=\":443\"; ma=2592000,quic=\":443\"; ma=2592000; v=\"46,43\"
----
--Request 
GET https://securepubads.g.doubleclick.net/gampad/ads?pvsid=556331592190720&correlator=930581275844655&eid=31069183%2C31069285%2C31069289&output=ldjh&gdfp_req=1&vrg=2022083101&ptt=17&impl=fifs&iu_parts=17763952%2Chomepage&enc_prev_ius=%2F0%2F1&prev_iu_szs=320x50%7C320x50&fluid=height&ifi=5&adks=334369848&sfv=1-0-38&fsapi=false&prev_scp=pos%3Dmiddle%26env%3Dprod%26channel%3Dmobile&eri=1&cust_params=pgtype%3Dhome&sc=1&cookie=ID%3D3f5222e9b94a8872%3AT%3D1662113022%3AS%3DALNI_MYK01WomvsjECicEXFc9qIJqjXnpA&gpic=UID%3D00000872ab15fe48%3AT%3D1662113022%3ART%3D1662113022%3AS%3DALNI_MZecWrmURrSjs3dbQD9hWjY5SQ45Q&abxe=1&dt=1662113070194&lmt=1662113070&dlt=1662113067332&idt=2558&adxs=0&adys=10447&biw=1298&bih=361&scr_x=0&scr_y=0&btvi=5&ucis=5&oid=2&u_his=2&u_h=489&u_w=1313&u_ah=489&u_aw=1313&u_cd=24&u_sd=1&u_tz=-300&dmc=8&bc=31&uach=WyJMaW51eCIsIiIsIng4NiIsIiIsIjkwLjAuNDQzMC42MSIsW10sZmFsc2UsbnVsbCwiIixbXSxmYWxzZV0.&nvt=1&url=https%3A%2F%2Fm.kohls.com%2F&ref=https%3A%2F%2Fm.kohls.com%2F&frm=20&vis=1&psz=1298x0&msz=1298x6&fws=132&ohw=1298&ga_vid=1350227648.1662113023&ga_sid=1662113070&ga_hid=2024804943&ga_fc=true
Host: securepubads.g.doubleclick.net
sec-ch-ua: \" Not A;Brand\";v=\"99\", \"Chromium\";v=\"90\"
sec-ch-ua-mobile: ?0
User-Agent: Mozilla/5.0 (Linux; Android 6.0.1; Moto G (4) Build/MPJ24.139-64) AppleWebKit/537.36 (KHTML, like Gecko) Chrome/58.0.3029.81 Mobile Safari/537.36 PTST/1
Accept: */*
Origin: https://m.kohls.com
Sec-Fetch-Site: cross-site
Sec-Fetch-Mode: cors
Sec-Fetch-Dest: empty
Referer: https://m.kohls.com/
Accept-Encoding: gzip, deflate, br
Accept-Language: en-US,en;q=0.9
Cookie: IDE=AHWqTUkcFNK6rkGsuQyESkGite_-OosB3jO2d_jmudGsbkFvdo5vkLZAKxyIBtPvW5E
----
--Response 
HTTP/1.1 200
p3p: policyref=\"https://googleads.g.doubleclick.net/pagead/gcn_p3p_.xml\", CP=\"CURa ADMa DEVa TAIo PSAo PSDo OUR IND UNI PUR INT DEM STA PRE COM NAV OTC NOI DSP COR\"
timing-allow-origin: *
cross-origin-resource-policy: cross-origin
access-control-allow-credentials: true
access-control-allow-origin: https://m.kohls.com
google-lineitem-id: -2
google-creative-id: -2
google-mediationgroup-id: -2
google-mediationtag-id: -2
date: Fri, 02 Sep 2022 10:04:30 GMT
pragma: no-cache
expires: Fri, 01 Jan 1990 00:00:00 GMT
cache-control: no-cache, must-revalidate
content-type: text/plain; charset=UTF-8
x-content-type-options: nosniff
content-encoding: br
server: cafe
content-length: 121
x-xss-protection: 0
alt-svc: h3=\":443\"; ma=2592000,h3-29=\":443\"; ma=2592000,h3-Q050=\":443\"; ma=2592000,h3-Q046=\":443\"; ma=2592000,h3-Q043=\":443\"; ma=2592000,quic=\":443\"; ma=2592000; v=\"46,43\"
----
--Request 
GET https://www.google.com/pagead/1p-user-list/1018012790/?guid=ON&data=aam=10263239&is_vtc=1&random=4104193889
Host: www.google.com
sec-ch-ua: \" Not A;Brand\";v=\"99\", \"Chromium\";v=\"90\"
sec-ch-ua-mobile: ?0
User-Agent: Mozilla/5.0 (Linux; Android 6.0.1; Moto G (4) Build/MPJ24.139-64) AppleWebKit/537.36 (KHTML, like Gecko) Chrome/58.0.3029.81 Mobile Safari/537.36 PTST/1
Accept: image/avif,image/webp,image/apng,image/svg+xml,image/*,*/*;q=0.8
Sec-Fetch-Site: cross-site
Sec-Fetch-Mode: no-cors
Sec-Fetch-Dest: image
Referer: https://kohls.demdex.net/
Accept-Encoding: gzip, deflate, br
Accept-Language: en-US,en;q=0.9
----
--Response 
HTTP/1.1 200
p3p: policyref=\"https://www.googleadservices.com/pagead/p3p.xml\", CP=\"NOI DEV PSA PSD IVA IVD OTP OUR OTR IND OTC\"
timing-allow-origin: *
cross-origin-resource-policy: cross-origin
date: Fri, 02 Sep 2022 10:04:30 GMT
pragma: no-cache
expires: Fri, 01 Jan 1990 00:00:00 GMT
cache-control: no-cache, no-store, must-revalidate
content-type: image/gif
content-security-policy: script-src 'none'; object-src 'none'
x-content-type-options: nosniff
server: cafe
content-length: 42
x-xss-protection: 0
alt-svc: h3=\":443\"; ma=2592000,h3-29=\":443\"; ma=2592000,h3-Q050=\":443\"; ma=2592000,h3-Q046=\":443\"; ma=2592000,h3-Q043=\":443\"; ma=2592000,quic=\":443\"; ma=2592000; v=\"46,43\"
----

