--Request 
POST https://k-aus1.clicktale.net/v2/recording?rt=7&v=11.40.1&pid=2399&uu=6d513319-e33c-a1a2-f741-3ecaf18284e9&sn=1&pn=1&ri=2&rst=1662113025036&let=1662113026746&enc=lzstring
Host: k-aus1.clicktale.net
sec-ch-ua: \" Not A;Brand\";v=\"99\", \"Chromium\";v=\"90\"
sec-ch-ua-mobile: ?0
User-Agent: Mozilla/5.0 (Linux; Android 6.0.1; Moto G (4) Build/MPJ24.139-64) AppleWebKit/537.36 (KHTML, like Gecko) Chrome/58.0.3029.81 Mobile Safari/537.36 PTST/1
Accept: */*
Origin: https://m.kohls.com
Sec-Fetch-Site: cross-site
Sec-Fetch-Mode: cors
Sec-Fetch-Dest: empty
Referer: https://m.kohls.com/
Accept-Encoding: gzip, deflate, br
Accept-Language: en-US,en;q=0.9
----
--Response 
HTTP/1.1 200
date: Fri, 02 Sep 2022 10:03:48 GMT
content-length: 0
timing-allow-origin: *
access-control-allow-origin: *
access-control-allow-methods: GET, POST, OPTIONS
access-control-allow-headers: Access-Control-Expose-Headers, Content-Type, Content-Compression
----
--Request 
GET https://tr.snapchat.com/cm/i?pid=99ed79db-3aec-4b85-9a61-ed80a2993b62&u_scsid=2843c17a-5374-4062-ae1a-c004cf6df31d&u_sclid=e998c793-040c-4281-82d9-b9b291967f52
Host: tr.snapchat.com
Upgrade-Insecure-Requests: 1
User-Agent: Mozilla/5.0 (Linux; Android 6.0.1; Moto G (4) Build/MPJ24.139-64) AppleWebKit/537.36 (KHTML, like Gecko) Chrome/58.0.3029.81 Mobile Safari/537.36 PTST/1
Accept: text/html,application/xhtml+xml,application/xml;q=0.9,image/avif,image/webp,image/apng,*/*;q=0.8,application/signed-exchange;v=b3;q=0.9
Sec-Fetch-Site: cross-site
Sec-Fetch-Mode: navigate
Sec-Fetch-Dest: iframe
Referer: https://m.kohls.com/
Accept-Encoding: gzip, deflate, br
Accept-Language: en-US,en;q=0.9
----
--Response 
HTTP/1.1 200
date: Fri, 02 Sep 2022 10:03:48 GMT
set-cookie: sc_at=v2|H4sIAAAAAAAAAAXBiREAIQgEsIqY4ZG9tR08rILiTZq6EPiETcj680qd2tIn9y3vDOWMAW4W6hx9fyLJhTIAAAA=;SameSite=None;Version=1;Comment=;Domain=.snapchat.com;Path=/;Max-Age=33696000;Secure
content-type: text/html
strict-transport-security: max-age=31536000; includeSubDomains; preload
strict-transport-security: max-age=31536000; includeSubDomains
x-envoy-upstream-service-time: 11
content-encoding: gzip
vary: Accept-Encoding
server: API Gateway
via: 1.1 google
alt-svc: h3=\":443\"; ma=2592000,h3-29=\":443\"; ma=2592000,h3-Q050=\":443\"; ma=2592000,h3-Q046=\":443\"; ma=2592000,h3-Q043=\":443\"; ma=2592000,quic=\":443\"; ma=2592000; v=\"46,43\"
----

