--Request 
POST https://stats.g.doubleclick.net/j/collect?t=dc&aip=1&_r=3&v=1&_v=j96&tid=UA-77809548-1&cid=1552355994.1662106560&jid=1337807602&gjid=865202476&_gid=1446665977.1662106560&_u=IEBAAEAAAAAAAC~&z=1881793559
Host: stats.g.doubleclick.net
sec-ch-ua: \" Not A;Brand\";v=\"99\", \"Chromium\";v=\"90\"
sec-ch-ua-mobile: ?0
User-Agent: Mozilla/5.0 (Linux; Android 6.0.1; Moto G (4) Build/MPJ24.139-64) AppleWebKit/537.36 (KHTML, like Gecko) Chrome/58.0.3029.81 Mobile Safari/537.36 PTST/1
Content-Type: text/plain
Accept: */*
Origin: https://www.cavisson.com
Sec-Fetch-Site: cross-site
Sec-Fetch-Mode: cors
Sec-Fetch-Dest: empty
Accept-Encoding: gzip, deflate, br
Accept-Language: en-US,en;q=0.9
----
--Response 
HTTP/1.1 200
access-control-allow-origin: https://www.cavisson.com
strict-transport-security: max-age=10886400; includeSubDomains; preload
date: Fri, 02 Sep 2022 08:15:59 GMT
pragma: no-cache
expires: Fri, 01 Jan 1990 00:00:00 GMT
cache-control: no-cache, no-store, must-revalidate
last-modified: Sun, 17 May 1998 03:00:00 GMT
access-control-allow-credentials: true
x-content-type-options: nosniff
content-type: text/plain
cross-origin-resource-policy: cross-origin
server: Golfe2
content-length: 2
alt-svc: h3=\":443\"; ma=2592000,h3-29=\":443\"; ma=2592000,h3-Q050=\":443\"; ma=2592000,h3-Q046=\":443\"; ma=2592000,h3-Q043=\":443\"; ma=2592000,quic=\":443\"; ma=2592000; v=\"46,43\"
----
--Request 
GET https://www.gstatic.com/recaptcha/releases/mBwkfBPLFWI0ygbsp8eJNMkw/styles__ltr.css
Host: www.gstatic.com
sec-ch-ua: \" Not A;Brand\";v=\"99\", \"Chromium\";v=\"90\"
sec-ch-ua-mobile: ?0
User-Agent: Mozilla/5.0 (Linux; Android 6.0.1; Moto G (4) Build/MPJ24.139-64) AppleWebKit/537.36 (KHTML, like Gecko) Chrome/58.0.3029.81 Mobile Safari/537.36 PTST/1
Accept: text/css,*/*;q=0.1
Sec-Fetch-Site: cross-site
Sec-Fetch-Mode: no-cors
Sec-Fetch-Dest: style
Referer: https://www.google.com/
Accept-Encoding: gzip, deflate, br
Accept-Language: en-US,en;q=0.9
----
--Response 
HTTP/1.1 200
accept-ranges: bytes
vary: Accept-Encoding
content-encoding: gzip
content-security-policy-report-only: require-trusted-types-for 'script'; report-uri https://csp.withgoogle.com/csp/recaptcha
cross-origin-resource-policy: cross-origin
cross-origin-opener-policy: same-origin-allow-popups; report-to=\"recaptcha\"
report-to: {\"group\":\"recaptcha\",\"max_age\":2592000,\"endpoints\":[{\"url\":\"https://csp.withgoogle.com/csp/report-to/recaptcha\"}]}
content-length: 24251
x-content-type-options: nosniff
server: sffe
x-xss-protection: 0
date: Fri, 02 Sep 2022 00:23:36 GMT
expires: Sat, 02 Sep 2023 00:23:36 GMT
cache-control: public, max-age=31536000
last-modified: Mon, 29 Aug 2022 04:01:21 GMT
content-type: text/css
age: 28343
alt-svc: h3=\":443\"; ma=2592000,h3-29=\":443\"; ma=2592000,h3-Q050=\":443\"; ma=2592000,h3-Q046=\":443\"; ma=2592000,h3-Q043=\":443\"; ma=2592000,quic=\":443\"; ma=2592000; v=\"46,43\"
----
--Request 
GET https://www.gstatic.com/recaptcha/releases/mBwkfBPLFWI0ygbsp8eJNMkw/recaptcha__en.js
Host: www.gstatic.com
sec-ch-ua: \" Not A;Brand\";v=\"99\", \"Chromium\";v=\"90\"
sec-ch-ua-mobile: ?0
User-Agent: Mozilla/5.0 (Linux; Android 6.0.1; Moto G (4) Build/MPJ24.139-64) AppleWebKit/537.36 (KHTML, like Gecko) Chrome/58.0.3029.81 Mobile Safari/537.36 PTST/1
Accept: */*
Sec-Fetch-Site: cross-site
Sec-Fetch-Mode: no-cors
Sec-Fetch-Dest: script
Referer: https://www.google.com/
Accept-Encoding: gzip, deflate, br
Accept-Language: en-US,en;q=0.9
----
--Response 
HTTP/1.1 200
accept-ranges: bytes
vary: Accept-Encoding
content-encoding: gzip
access-control-allow-origin: *
content-security-policy-report-only: require-trusted-types-for 'script'; report-uri https://csp.withgoogle.com/csp/recaptcha
cross-origin-resource-policy: cross-origin
cross-origin-opener-policy: same-origin-allow-popups; report-to=\"recaptcha\"
report-to: {\"group\":\"recaptcha\",\"max_age\":2592000,\"endpoints\":[{\"url\":\"https://csp.withgoogle.com/csp/report-to/recaptcha\"}]}
content-length: 157730
x-content-type-options: nosniff
server: sffe
x-xss-protection: 0
date: Fri, 02 Sep 2022 05:25:31 GMT
expires: Sat, 02 Sep 2023 05:25:31 GMT
cache-control: public, max-age=31536000
last-modified: Mon, 29 Aug 2022 04:01:21 GMT
content-type: text/javascript
age: 10228
alt-svc: h3=\":443\"; ma=2592000,h3-29=\":443\"; ma=2592000,h3-Q050=\":443\"; ma=2592000,h3-Q046=\":443\"; ma=2592000,h3-Q043=\":443\"; ma=2592000,quic=\":443\"; ma=2592000; v=\"46,43\"
----
--Request 
GET https://www.youtube.com/iframe_api
Host: www.youtube.com
sec-ch-ua: \" Not A;Brand\";v=\"99\", \"Chromium\";v=\"90\"
sec-ch-ua-mobile: ?0
User-Agent: Mozilla/5.0 (Linux; Android 6.0.1; Moto G (4) Build/MPJ24.139-64) AppleWebKit/537.36 (KHTML, like Gecko) Chrome/58.0.3029.81 Mobile Safari/537.36 PTST/1
Accept: */*
Sec-Fetch-Site: cross-site
Sec-Fetch-Mode: no-cors
Sec-Fetch-Dest: script
Accept-Encoding: gzip, deflate, br
Accept-Language: en-US,en;q=0.9
----

--Request 
GET https://www.gstatic.com/recaptcha/api2/logo_48.png
Host: www.gstatic.com
sec-ch-ua: \" Not A;Brand\";v=\"99\", \"Chromium\";v=\"90\"
sec-ch-ua-mobile: ?0
User-Agent: Mozilla/5.0 (Linux; Android 6.0.1; Moto G (4) Build/MPJ24.139-64) AppleWebKit/537.36 (KHTML, like Gecko) Chrome/58.0.3029.81 Mobile Safari/537.36 PTST/1
Accept: image/avif,image/webp,image/apng,image/svg+xml,image/*,*/*;q=0.8
Sec-Fetch-Site: cross-site
Sec-Fetch-Mode: no-cors
Sec-Fetch-Dest: image
Referer: https://www.gstatic.com/recaptcha/releases/mBwkfBPLFWI0ygbsp8eJNMkw/styles__ltr.css
Accept-Encoding: gzip, deflate, br
Accept-Language: en-US,en;q=0.9
----
--Response 
HTTP/1.1 200
accept-ranges: bytes
content-security-policy-report-only: require-trusted-types-for 'script'; report-uri https://csp.withgoogle.com/csp/recaptcha
cross-origin-resource-policy: cross-origin
cross-origin-opener-policy-report-only: same-origin-allow-popups; report-to=\"recaptcha\"
report-to: {\"group\":\"recaptcha\",\"max_age\":2592000,\"endpoints\":[{\"url\":\"https://csp.withgoogle.com/csp/report-to/recaptcha\"}]}
content-length: 2228
x-content-type-options: nosniff
server: sffe
x-xss-protection: 0
date: Wed, 31 Aug 2022 10:14:43 GMT
expires: Wed, 07 Sep 2022 10:14:43 GMT
cache-control: public, max-age=604800
age: 165677
last-modified: Tue, 03 Mar 2020 20:15:00 GMT
content-type: image/png
alt-svc: h3=\":443\"; ma=2592000,h3-29=\":443\"; ma=2592000,h3-Q050=\":443\"; ma=2592000,h3-Q046=\":443\"; ma=2592000,h3-Q043=\":443\"; ma=2592000,quic=\":443\"; ma=2592000; v=\"46,43\"
----
--Request 
GET https://fonts.gstatic.com/s/roboto/v18/KFOmCnqEu92Fr1Mu4mxKKTU1Kg.woff2
Host: fonts.gstatic.com
sec-ch-ua: \" Not A;Brand\";v=\"99\", \"Chromium\";v=\"90\"
Origin: https://www.google.com
sec-ch-ua-mobile: ?0
User-Agent: Mozilla/5.0 (Linux; Android 6.0.1; Moto G (4) Build/MPJ24.139-64) AppleWebKit/537.36 (KHTML, like Gecko) Chrome/58.0.3029.81 Mobile Safari/537.36 PTST/1
Accept: */*
Sec-Fetch-Site: cross-site
Sec-Fetch-Mode: cors
Sec-Fetch-Dest: font
Referer: https://www.google.com/
Accept-Encoding: gzip, deflate, br
Accept-Language: en-US,en;q=0.9
----
--Response 
HTTP/1.1 200
accept-ranges: bytes
access-control-allow-origin: *
content-security-policy-report-only: require-trusted-types-for 'script'; report-uri https://csp.withgoogle.com/csp/apps-themes
cross-origin-resource-policy: cross-origin
cross-origin-opener-policy: same-origin; report-to=\"apps-themes\"
report-to: {\"group\":\"apps-themes\",\"max_age\":2592000,\"endpoints\":[{\"url\":\"https://csp.withgoogle.com/csp/report-to/apps-themes\"}]}
timing-allow-origin: *
content-length: 10748
x-content-type-options: nosniff
server: sffe
x-xss-protection: 0
date: Thu, 01 Sep 2022 04:41:23 GMT
expires: Fri, 01 Sep 2023 04:41:23 GMT
cache-control: public, max-age=31536000
age: 99277
last-modified: Mon, 16 Oct 2017 17:32:51 GMT
content-type: font/woff2
alt-svc: h3=\":443\"; ma=2592000,h3-29=\":443\"; ma=2592000,h3-Q050=\":443\"; ma=2592000,h3-Q046=\":443\"; ma=2592000,h3-Q043=\":443\"; ma=2592000,quic=\":443\"; ma=2592000; v=\"46,43\"
----
--Request 
GET https://www.google.com/ads/ga-audiences?t=sr&aip=1&_r=4&slf_rd=1&v=1&_v=j96&tid=UA-77809548-1&cid=1552355994.1662106560&jid=1337807602&_u=IEBAAEAAAAAAAC~&z=1998705000
Host: www.google.com
sec-ch-ua: \" Not A;Brand\";v=\"99\", \"Chromium\";v=\"90\"
sec-ch-ua-mobile: ?0
User-Agent: Mozilla/5.0 (Linux; Android 6.0.1; Moto G (4) Build/MPJ24.139-64) AppleWebKit/537.36 (KHTML, like Gecko) Chrome/58.0.3029.81 Mobile Safari/537.36 PTST/1
Accept: image/avif,image/webp,image/apng,image/svg+xml,image/*,*/*;q=0.8
Sec-Fetch-Site: cross-site
Sec-Fetch-Mode: no-cors
Sec-Fetch-Dest: image
Accept-Encoding: gzip, deflate, br
Accept-Language: en-US,en;q=0.9
----
--Response 
HTTP/1.1 200
p3p: policyref=\"https://www.googleadservices.com/pagead/p3p.xml\", CP=\"NOI DEV PSA PSD IVA IVD OTP OUR OTR IND OTC\"
timing-allow-origin: *
cross-origin-resource-policy: cross-origin
date: Fri, 02 Sep 2022 08:16:00 GMT
pragma: no-cache
expires: Fri, 01 Jan 1990 00:00:00 GMT
cache-control: no-cache, no-store, must-revalidate
content-type: image/gif
x-content-type-options: nosniff
server: cafe
content-length: 42
x-xss-protection: 0
alt-svc: h3=\":443\"; ma=2592000,h3-29=\":443\"; ma=2592000,h3-Q050=\":443\"; ma=2592000,h3-Q046=\":443\"; ma=2592000,h3-Q043=\":443\"; ma=2592000,quic=\":443\"; ma=2592000; v=\"46,43\"
----
--Request 
GET https://prod.artibotcdn.com/manifest/_ArtiBotLauncherCB_Manifest?_=_
Host: prod.artibotcdn.com
sec-ch-ua: \" Not A;Brand\";v=\"99\", \"Chromium\";v=\"90\"
sec-ch-ua-mobile: ?0
User-Agent: Mozilla/5.0 (Linux; Android 6.0.1; Moto G (4) Build/MPJ24.139-64) AppleWebKit/537.36 (KHTML, like Gecko) Chrome/58.0.3029.81 Mobile Safari/537.36 PTST/1
Accept: */*
Sec-Fetch-Site: cross-site
Sec-Fetch-Mode: no-cors
Sec-Fetch-Dest: script
Accept-Encoding: gzip, deflate, br
Accept-Language: en-US,en;q=0.9
----
--Response 
HTTP/1.1 200
date: Fri, 02 Sep 2022 08:16:00 GMT
content-type: application/javascript; charset=utf-8
last-modified: Tue, 12 Oct 2021 19:43:29 GMT
x-amz-version-id: null
cache-control: public, max-age=900
etag: W/\"30f5a5230e5fa350c423fcf8a1ef11f0\"
vary: Accept-Encoding
x-cache: Hit from cloudfront
via: 1.1 6c90b631453c435bd0022caa657b67e8.cloudfront.net (CloudFront)
x-amz-cf-pop: SFO5-P2
x-amz-cf-id: mqdGE4UVGO7PTVdwIpS2INew38ONM0d8b85a-BOEmxYmOAUcFHa0Qg==
age: 609
cf-cache-status: DYNAMIC
report-to: {\"endpoints\":[{\"url\":\"https:\\/\\/a.nel.cloudflare.com\\/report\\/v3?s=DpNYc7nJ%2BMYzVN6NfC09ODKYaWsS8RzyBiM18PUiyzsc5d0gFHQVZ8dSkYUS14D1WqcHOZZ9CUPJQsyGNPmp3HEDP0q7MUx0mxoYtcFVBfBCqAaT8Ques7QGOQB24XcSk1fPZ1dG\"}],\"group\":\"cf-nel\",\"max_age\":604800}
nel: {\"success_fraction\":0,\"report_to\":\"cf-nel\",\"max_age\":604800}
server: cloudflare
cf-ray: 7444cd110ea50cdf-LAX
content-encoding: br
alt-svc: h3=\":443\"; ma=86400, h3-29=\":443\"; ma=86400
----
--Request 
GET https://px.ads.linkedin.com/collect?v=2&fmt=js&pid=775971&time=1662106559850&url=https%3A%2F%2Fwww.cavisson.com%2F&cookiesTest=true
Host: px.ads.linkedin.com
sec-ch-ua: \" Not A;Brand\";v=\"99\", \"Chromium\";v=\"90\"
sec-ch-ua-mobile: ?0
User-Agent: Mozilla/5.0 (Linux; Android 6.0.1; Moto G (4) Build/MPJ24.139-64) AppleWebKit/537.36 (KHTML, like Gecko) Chrome/58.0.3029.81 Mobile Safari/537.36 PTST/1
Accept: image/avif,image/webp,image/apng,image/svg+xml,image/*,*/*;q=0.8
Sec-Fetch-Site: cross-site
Sec-Fetch-Mode: no-cors
Sec-Fetch-Dest: image
Accept-Encoding: gzip, deflate, br
Accept-Language: en-US,en;q=0.9
----
--Response 
HTTP/1.1 200
content-type: application/javascript
set-cookie: lang=v=2&lang=en-us; Path=/; Domain=ads.linkedin.com; Secure
set-cookie: bcookie=\"v=2&85e5f77f-722b-4f18-821c-9bd9ce12904d\"; domain=.linkedin.com; Path=/; Secure; Expires=Sat, 02-Sep-2023 08:16:00 GMT
set-cookie: lidc=\"b=OGST09:s=O:r=O:a=O:p=O:g=2336:u=1:x=1:i=1662106560:t=1662192960:v=2:sig=AQGxCf4i5BfOOC7fKWrZhHSty38uyRSO\"; Expires=Sat, 03 Sep 2022 08:16:00 GMT; domain=.linkedin.com; Path=/; Secure
linkedin-action: 1
x-li-fabric: prod-lor1
x-li-pop: afd-prod-lor1-x
x-li-proto: http/2
x-li-uuid: AAXnrVcYyMlMnVYdPMXuKQ==
x-cache: CONFIG_NOCACHE
x-msedge-ref: Ref A: B0203A3F564449DEABB64C46E2134B54 Ref B: BY3EDGE0119 Ref C: 2022-09-02T08:16:00Z
date: Fri, 02 Sep 2022 08:15:59 GMT
content-length: 0
----

--Response 
HTTP/1.1 200
content-type: text/javascript; charset=utf-8
x-content-type-options: nosniff
expires: Fri, 02 Sep 2022 08:16:00 GMT
date: Fri, 02 Sep 2022 08:16:00 GMT
cache-control: private, max-age=0
x-frame-options: SAMEORIGIN
strict-transport-security: max-age=31536000
cross-origin-resource-policy: cross-origin
permissions-policy: ch-ua-arch=*, ch-ua-bitness=*, ch-ua-full-version=*, ch-ua-full-version-list=*, ch-ua-model=*, ch-ua-platform=*, ch-ua-platform-version=*
cross-origin-opener-policy-report-only: same-origin; report-to=\"youtube_main\"
report-to: {\"group\":\"youtube_main\",\"max_age\":2592000,\"endpoints\":[{\"url\":\"https://csp.withgoogle.com/csp/report-to/youtube_main\"}]}
p3p: CP=\"This is not a P3P policy! See http://support.google.com/accounts/answer/151657?hl=en for more info.\"
content-encoding: br
server: ESF
x-xss-protection: 0
set-cookie: YSC=pcPetDPWV00; Domain=.youtube.com; Path=/; Secure; HttpOnly
set-cookie: VISITOR_INFO1_LIVE=v_mtxuQhGp0; Domain=.youtube.com; Expires=Wed, 01-Mar-2023 08:16:00 GMT; Path=/; Secure; HttpOnly
alt-svc: h3=\":443\"; ma=2592000,h3-29=\":443\"; ma=2592000,h3-Q050=\":443\"; ma=2592000,h3-Q046=\":443\"; ma=2592000,h3-Q043=\":443\"; ma=2592000,quic=\":443\"; ma=2592000; v=\"46,43\"
----
--Request 
GET https://www.youtube.com/s/player/5a3b6271/www-widgetapi.vflset/www-widgetapi.js
Host: www.youtube.com
sec-ch-ua: \" Not A;Brand\";v=\"99\", \"Chromium\";v=\"90\"
sec-ch-ua-mobile: ?0
User-Agent: Mozilla/5.0 (Linux; Android 6.0.1; Moto G (4) Build/MPJ24.139-64) AppleWebKit/537.36 (KHTML, like Gecko) Chrome/58.0.3029.81 Mobile Safari/537.36 PTST/1
Accept: */*
Sec-Fetch-Site: cross-site
Sec-Fetch-Mode: no-cors
Sec-Fetch-Dest: script
Accept-Encoding: gzip, deflate, br
Accept-Language: en-US,en;q=0.9
----
--Response 
HTTP/1.1 200
accept-ranges: bytes
vary: Accept-Encoding, Origin
content-encoding: br
cross-origin-resource-policy: cross-origin
cross-origin-opener-policy-report-only: same-origin; report-to=\"youtube\"
report-to: {\"group\":\"youtube\",\"max_age\":2592000,\"endpoints\":[{\"url\":\"https://csp.withgoogle.com/csp/report-to/youtube\"}]}
content-length: 53414
x-content-type-options: nosniff
server: sffe
x-xss-protection: 0
date: Fri, 02 Sep 2022 07:10:49 GMT
expires: Sat, 02 Sep 2023 07:10:49 GMT
cache-control: public, max-age=31536000
last-modified: Thu, 01 Sep 2022 00:17:46 GMT
content-type: text/javascript
age: 3911
alt-svc: h3=\":443\"; ma=2592000,h3-29=\":443\"; ma=2592000,h3-Q050=\":443\"; ma=2592000,h3-Q046=\":443\"; ma=2592000,h3-Q043=\":443\"; ma=2592000,quic=\":443\"; ma=2592000; v=\"46,43\"
----
--Request 
GET https://prod.artibotcdn.com/launcher.4514.js
Host: prod.artibotcdn.com
sec-ch-ua: \" Not A;Brand\";v=\"99\", \"Chromium\";v=\"90\"
sec-ch-ua-mobile: ?0
User-Agent: Mozilla/5.0 (Linux; Android 6.0.1; Moto G (4) Build/MPJ24.139-64) AppleWebKit/537.36 (KHTML, like Gecko) Chrome/58.0.3029.81 Mobile Safari/537.36 PTST/1
Accept: */*
Sec-Fetch-Site: cross-site
Sec-Fetch-Mode: no-cors
Sec-Fetch-Dest: script
Accept-Encoding: gzip, deflate, br
Accept-Language: en-US,en;q=0.9
----
--Response 
HTTP/1.1 200
date: Fri, 02 Sep 2022 08:16:00 GMT
content-type: application/javascript; charset=utf-8
cache-control: public, max-age=31536000
last-modified: Tue, 12 Oct 2021 19:43:23 GMT
x-amz-version-id: null
etag: W/\"7deaa8108362bbdd03720d8b30e9dc39\"
vary: Accept-Encoding
x-cache: Hit from cloudfront
via: 1.1 c9cf34e325f403e993adb63735f5db28.cloudfront.net (CloudFront)
x-amz-cf-pop: LAX3-C4
x-amz-cf-id: stBUMdKc98EiaWJMow0oecqEH2uTMjARSunC1dx6R3qwyn78ZbbHDg==
age: 781092
cf-cache-status: HIT
report-to: {\"endpoints\":[{\"url\":\"https:\\/\\/a.nel.cloudflare.com\\/report\\/v3?s=wo8YGJ5kyrovl%2FBVASAmk7s4Xd57hVK2czPqxzaNEUVZBxsogSS5Ag1spRenucpTDG5wBCIUx0Gmta4BZDy0PkUZlgoxqnQp6%2BGh2XNU5o6hegVEehRHE0myNH%2BwpLChxIwkT1hn\"}],\"group\":\"cf-nel\",\"max_age\":604800}
nel: {\"success_fraction\":0,\"report_to\":\"cf-nel\",\"max_age\":604800}
server: cloudflare
cf-ray: 7444cd119fef7cbc-LAX
content-encoding: br
alt-svc: h3=\":443\"; ma=86400, h3-29=\":443\"; ma=86400
----
--Request 
GET https://www.google.com/recaptcha/api2/webworker.js?hl=en&v=mBwkfBPLFWI0ygbsp8eJNMkw
Host: www.google.com
sec-ch-ua: \" Not A;Brand\";v=\"99\", \"Chromium\";v=\"90\"
sec-ch-ua-mobile: ?0
User-Agent: Mozilla/5.0 (Linux; Android 6.0.1; Moto G (4) Build/MPJ24.139-64) AppleWebKit/537.36 (KHTML, like Gecko) Chrome/58.0.3029.81 Mobile Safari/537.36 PTST/1
Accept: */*
Sec-Fetch-Site: same-origin
Sec-Fetch-Mode: same-origin
Sec-Fetch-Dest: worker
Referer: https://www.google.com/recaptcha/api2/anchor?ar=1&k=6Ldt8qEUAAAAAH-QhEOUuqZ3-IqCap0nlTw6xrli&co=aHR0cHM6Ly93d3cuY2F2aXNzb24uY29tOjQ0Mw..&hl=en&v=mBwkfBPLFWI0ygbsp8eJNMkw&size=normal&cb=laoprh7lgzmo
Accept-Encoding: gzip, deflate, br
Accept-Language: en-US,en;q=0.9
----
--Response 
HTTP/1.1 200
expires: Fri, 02 Sep 2022 08:16:00 GMT
date: Fri, 02 Sep 2022 08:16:00 GMT
cache-control: private, max-age=300
cross-origin-embedder-policy: require-corp
report-to: {\"group\":\"recaptcha\",\"max_age\":2592000,\"endpoints\":[{\"url\":\"https://csp.withgoogle.com/csp/report-to/recaptcha\"}]}
content-type: text/javascript; charset=UTF-8
content-encoding: gzip
x-content-type-options: nosniff
x-frame-options: SAMEORIGIN
content-security-policy: frame-ancestors 'self'
x-xss-protection: 1; mode=block
content-length: 112
server: GSE
alt-svc: h3=\":443\"; ma=2592000,h3-29=\":443\"; ma=2592000,h3-Q050=\":443\"; ma=2592000,h3-Q046=\":443\"; ma=2592000,h3-Q043=\":443\"; ma=2592000,quic=\":443\"; ma=2592000; v=\"46,43\"
----

