--Request 
GET https://www.google.com/pagead/attribution/wcm?cc=ZZ&dn=18007016125&cl=9penCM3u55cBEOWDzZMD
Host: www.google.com
sec-ch-ua: \" Not A;Brand\";v=\"99\", \"Chromium\";v=\"90\"
sec-ch-ua-mobile: ?0
User-Agent: Mozilla/5.0 (Linux; Android 6.0.1; Moto G (4) Build/MPJ24.139-64) AppleWebKit/537.36 (KHTML, like Gecko) Chrome/58.0.3029.81 Mobile Safari/537.36 PTST/1
Accept: */*
Origin: null
Sec-Fetch-Site: cross-site
Sec-Fetch-Mode: cors
Sec-Fetch-Dest: empty
Accept-Encoding: gzip, deflate, br
Accept-Language: en-US,en;q=0.9
----
--Response 
HTTP/1.1 200
p3p: policyref=\"https://www.googleadservices.com/pagead/p3p.xml\", CP=\"NOI DEV PSA PSD IVA IVD OTP OUR OTR IND OTC\"
timing-allow-origin: *
cross-origin-resource-policy: cross-origin
content-type: application/json; charset=UTF-8
access-control-allow-origin: null
access-control-allow-credentials: true
x-content-type-options: nosniff
content-disposition: attachment; filename=\"f.txt\"
content-encoding: gzip
date: Fri, 02 Sep 2022 08:16:26 GMT
server: cafe
cache-control: private
content-length: 87
x-xss-protection: 0
alt-svc: h3=\":443\"; ma=2592000,h3-29=\":443\"; ma=2592000,h3-Q050=\":443\"; ma=2592000,h3-Q046=\":443\"; ma=2592000,h3-Q043=\":443\"; ma=2592000,quic=\":443\"; ma=2592000; v=\"46,43\"
----
--Request 
GET https://fonts.googleapis.com/css?family=Source+Sans+Pro:300,400,400i,600,700
Host: fonts.googleapis.com
sec-ch-ua: \" Not A;Brand\";v=\"99\", \"Chromium\";v=\"90\"
sec-ch-ua-mobile: ?0
User-Agent: Mozilla/5.0 (Linux; Android 6.0.1; Moto G (4) Build/MPJ24.139-64) AppleWebKit/537.36 (KHTML, like Gecko) Chrome/58.0.3029.81 Mobile Safari/537.36 PTST/1
Accept: text/css,*/*;q=0.1
Sec-Fetch-Site: cross-site
Sec-Fetch-Mode: no-cors
Sec-Fetch-Dest: style
Referer: https://app.artibot.ai/
Accept-Encoding: gzip, deflate, br
Accept-Language: en-US,en;q=0.9
----
--Response 
HTTP/1.1 200
content-type: text/css; charset=utf-8
access-control-allow-origin: *
timing-allow-origin: *
link: <https://fonts.gstatic.com>; rel=preconnect; crossorigin
expires: Fri, 02 Sep 2022 08:16:00 GMT
date: Fri, 02 Sep 2022 08:16:00 GMT
cache-control: private, max-age=86400, stale-while-revalidate=604800
last-modified: Fri, 02 Sep 2022 08:16:00 GMT
cross-origin-opener-policy: same-origin-allow-popups
cross-origin-resource-policy: cross-origin
content-encoding: gzip
server: ESF
x-xss-protection: 0
x-frame-options: SAMEORIGIN
x-content-type-options: nosniff
alt-svc: h3=\":443\"; ma=2592000,h3-29=\":443\"; ma=2592000,h3-Q050=\":443\"; ma=2592000,h3-Q046=\":443\"; ma=2592000,h3-Q043=\":443\"; ma=2592000,quic=\":443\"; ma=2592000; v=\"46,43\"
----
--Request 
GET https://fonts.googleapis.com/css?family=Source+Serif+Pro:300,400,400i,600,700
Host: fonts.googleapis.com
sec-ch-ua: \" Not A;Brand\";v=\"99\", \"Chromium\";v=\"90\"
sec-ch-ua-mobile: ?0
User-Agent: Mozilla/5.0 (Linux; Android 6.0.1; Moto G (4) Build/MPJ24.139-64) AppleWebKit/537.36 (KHTML, like Gecko) Chrome/58.0.3029.81 Mobile Safari/537.36 PTST/1
Accept: text/css,*/*;q=0.1
Sec-Fetch-Site: cross-site
Sec-Fetch-Mode: no-cors
Sec-Fetch-Dest: style
Referer: https://app.artibot.ai/
Accept-Encoding: gzip, deflate, br
Accept-Language: en-US,en;q=0.9
----
--Response 
HTTP/1.1 200
content-type: text/css; charset=utf-8
access-control-allow-origin: *
timing-allow-origin: *
link: <https://fonts.gstatic.com>; rel=preconnect; crossorigin
expires: Fri, 02 Sep 2022 08:16:00 GMT
date: Fri, 02 Sep 2022 08:16:00 GMT
cache-control: private, max-age=86400, stale-while-revalidate=604800
last-modified: Fri, 02 Sep 2022 08:16:00 GMT
cross-origin-opener-policy: same-origin-allow-popups
cross-origin-resource-policy: cross-origin
content-encoding: gzip
server: ESF
x-xss-protection: 0
x-frame-options: SAMEORIGIN
x-content-type-options: nosniff
alt-svc: h3=\":443\"; ma=2592000,h3-29=\":443\"; ma=2592000,h3-Q050=\":443\"; ma=2592000,h3-Q046=\":443\"; ma=2592000,h3-Q043=\":443\"; ma=2592000,quic=\":443\"; ma=2592000; v=\"46,43\"
----
--Request 
GET https://fonts.googleapis.com/css?family=Space+Mono:300,400,400i,600,700
Host: fonts.googleapis.com
sec-ch-ua: \" Not A;Brand\";v=\"99\", \"Chromium\";v=\"90\"
sec-ch-ua-mobile: ?0
User-Agent: Mozilla/5.0 (Linux; Android 6.0.1; Moto G (4) Build/MPJ24.139-64) AppleWebKit/537.36 (KHTML, like Gecko) Chrome/58.0.3029.81 Mobile Safari/537.36 PTST/1
Accept: text/css,*/*;q=0.1
Sec-Fetch-Site: cross-site
Sec-Fetch-Mode: no-cors
Sec-Fetch-Dest: style
Referer: https://app.artibot.ai/
Accept-Encoding: gzip, deflate, br
Accept-Language: en-US,en;q=0.9
----
--Response 
HTTP/1.1 200
content-type: text/css; charset=utf-8
access-control-allow-origin: *
timing-allow-origin: *
link: <https://fonts.gstatic.com>; rel=preconnect; crossorigin
expires: Fri, 02 Sep 2022 08:16:00 GMT
date: Fri, 02 Sep 2022 08:16:00 GMT
cache-control: private, max-age=86400, stale-while-revalidate=604800
last-modified: Fri, 02 Sep 2022 08:16:00 GMT
cross-origin-resource-policy: cross-origin
cross-origin-opener-policy: same-origin-allow-popups
content-encoding: gzip
server: ESF
x-xss-protection: 0
x-frame-options: SAMEORIGIN
x-content-type-options: nosniff
alt-svc: h3=\":443\"; ma=2592000,h3-29=\":443\"; ma=2592000,h3-Q050=\":443\"; ma=2592000,h3-Q046=\":443\"; ma=2592000,h3-Q043=\":443\"; ma=2592000,quic=\":443\"; ma=2592000; v=\"46,43\"
----
--Request 
GET https://www.google.com/recaptcha/api2/bframe?hl=en&v=mBwkfBPLFWI0ygbsp8eJNMkw&k=6Ldt8qEUAAAAAH-QhEOUuqZ3-IqCap0nlTw6xrli
Host: www.google.com
Upgrade-Insecure-Requests: 1
User-Agent: Mozilla/5.0 (Linux; Android 6.0.1; Moto G (4) Build/MPJ24.139-64) AppleWebKit/537.36 (KHTML, like Gecko) Chrome/58.0.3029.81 Mobile Safari/537.36 PTST/1
Accept: text/html,application/xhtml+xml,application/xml;q=0.9,image/avif,image/webp,image/apng,*/*;q=0.8,application/signed-exchange;v=b3;q=0.9
Sec-Fetch-Site: cross-site
Sec-Fetch-Mode: navigate
Sec-Fetch-Dest: iframe
Accept-Encoding: gzip, deflate, br
Accept-Language: en-US,en;q=0.9
----
--Response 
HTTP/1.1 200
cross-origin-resource-policy: cross-origin
cross-origin-embedder-policy: require-corp
report-to: {\"group\":\"recaptcha\",\"max_age\":2592000,\"endpoints\":[{\"url\":\"https://csp.withgoogle.com/csp/report-to/recaptcha\"}]}
content-type: text/html; charset=utf-8
cache-control: no-cache, no-store, max-age=0, must-revalidate
pragma: no-cache
expires: Mon, 01 Jan 1990 00:00:00 GMT
date: Fri, 02 Sep 2022 08:16:26 GMT
content-security-policy: script-src 'nonce-9h6JSDt6bdsSdtO3tBWH8g' 'unsafe-inline' 'strict-dynamic' https: http: 'unsafe-eval';object-src 'none';base-uri 'self';report-uri https://csp.withgoogle.com/csp/recaptcha/1
content-encoding: gzip
x-content-type-options: nosniff
x-xss-protection: 1; mode=block
content-length: 1197
server: GSE
alt-svc: h3=\":443\"; ma=2592000,h3-29=\":443\"; ma=2592000,h3-Q050=\":443\"; ma=2592000,h3-Q046=\":443\"; ma=2592000,h3-Q043=\":443\"; ma=2592000,quic=\":443\"; ma=2592000; v=\"46,43\"
----
--Request 
GET https://js.stripe.com/v3/m-outer-2a0f7db50009238158f4274fa211fa55.html#url=https%3A%2F%2Fapp.artibot.ai%2Fchat-window%3Fi%3D948c4b2e-cf5d-4d58-9e77-2b636e5bbd98%26cbv%3D12034483-9bfe-47a8-bbfa-ada6398deb1f%26v%3D20%26cp%3Dhttps%253A%252F%252Fwww.cavisson.com%252Fcavisson-systems-performance-intelligence-platform%252F%26th%3Dlight%26em%3Dtrue%26mo%3Dtrue%26sh%3Dfalse%26tb%3Dtrue&title=ArtiBot.ai%20%E2%80%94%20AI%20Powered%20Bot%20for%20Lead%20Capture&referrer=&muid=NA&sid=NA&version=6&preview=false
Host: js.stripe.com
Upgrade-Insecure-Requests: 1
User-Agent: Mozilla/5.0 (Linux; Android 6.0.1; Moto G (4) Build/MPJ24.139-64) AppleWebKit/537.36 (KHTML, like Gecko) Chrome/58.0.3029.81 Mobile Safari/537.36 PTST/1
Accept: text/html,application/xhtml+xml,application/xml;q=0.9,image/avif,image/webp,image/apng,*/*;q=0.8,application/signed-exchange;v=b3;q=0.9
Sec-Fetch-Site: cross-site
Sec-Fetch-Mode: navigate
Sec-Fetch-Dest: iframe
Referer: https://app.artibot.ai/
Accept-Encoding: gzip, deflate, br
Accept-Language: en-US,en;q=0.9
----
--Response 
HTTP/1.1 200
last-modified: Thu, 01 Sep 2022 17:56:04 GMT
etag: \"2a0f7db50009238158f4274fa211fa55\"
cache-control: max-age=31536000
content-type: text/html; charset=utf-8
content-security-policy: base-uri 'none'; connect-src 'self' https://r.stripe.com; default-src 'self'; font-src 'none'; form-action 'none'; frame-src https://m.stripe.network; img-src https://q.stripe.com; media-src 'none'; object-src 'none'; script-src 'self'; style-src 'self'; report-uri https://q.stripe.com/csp-report
content-security-policy-report-only: base-uri 'none'; connect-src 'self' https://r.stripe.com; default-src 'self'; font-src 'none'; form-action 'none'; frame-src https://m.stripe.network; img-src https://q.stripe.com; media-src 'none'; object-src 'none'; script-src 'self'; style-src 'self' 'sha256-0hAheEzaMe6uXIKV4EehS9pu1am1lj/KnnzrOYqckXk='; report-uri https://q.stripe.com/csp-report
x-content-type-options: nosniff
access-control-allow-origin: *
server: Fastly
content-encoding: br
accept-ranges: bytes
date: Fri, 02 Sep 2022 08:16:01 GMT
via: 1.1 varnish
age: 51517
x-request-id: 722e2d1a-55b2-41b1-9e19-6101dea8e8ed
x-served-by: cache-lax10669-LGB
x-cache: HIT
x-cache-hits: 13907
vary: Accept-Encoding
timing-allow-origin: *
content-length: 114
----
--Request 
GET https://js.stripe.com/v3/fingerprinted/js/m-outer-900a76d673da7dda0f4c2eb5c9c54cdd.js
Host: js.stripe.com
sec-ch-ua: \" Not A;Brand\";v=\"99\", \"Chromium\";v=\"90\"
sec-ch-ua-mobile: ?0
User-Agent: Mozilla/5.0 (Linux; Android 6.0.1; Moto G (4) Build/MPJ24.139-64) AppleWebKit/537.36 (KHTML, like Gecko) Chrome/58.0.3029.81 Mobile Safari/537.36 PTST/1
Accept: */*
Sec-Fetch-Site: same-origin
Sec-Fetch-Mode: no-cors
Sec-Fetch-Dest: script
Referer: https://js.stripe.com/v3/m-outer-2a0f7db50009238158f4274fa211fa55.html
Accept-Encoding: gzip, deflate, br
Accept-Language: en-US,en;q=0.9
----
--Response 
HTTP/1.1 200
last-modified: Thu, 01 Sep 2022 17:56:03 GMT
etag: \"d96c709017743c0759cf3853d1806ba5\"
cache-control: max-age=60
content-type: text/javascript; charset=utf-8
x-content-type-options: nosniff
access-control-allow-origin: *
server: Fastly
content-encoding: br
accept-ranges: bytes
date: Fri, 02 Sep 2022 08:16:01 GMT
via: 1.1 varnish
age: 7
x-request-id: f9eb8f4d-1cd2-418d-af96-ab353727a41f
x-served-by: cache-lax10669-LGB
x-cache: HIT
x-cache-hits: 1
vary: Accept-Encoding
timing-allow-origin: *
content-length: 256
----
--Request 
GET https://m.stripe.network/inner.html#url=https%3A%2F%2Fapp.artibot.ai%2Fchat-window%3Fi%3D948c4b2e-cf5d-4d58-9e77-2b636e5bbd98%26cbv%3D12034483-9bfe-47a8-bbfa-ada6398deb1f%26v%3D20%26cp%3Dhttps%253A%252F%252Fwww.cavisson.com%252Fcavisson-systems-performance-intelligence-platform%252F%26th%3Dlight%26em%3Dtrue%26mo%3Dtrue%26sh%3Dfalse%26tb%3Dtrue&title=ArtiBot.ai%20%E2%80%94%20AI%20Powered%20Bot%20for%20Lead%20Capture&referrer=&muid=NA&sid=NA&version=6&preview=false
Host: m.stripe.network
Upgrade-Insecure-Requests: 1
User-Agent: Mozilla/5.0 (Linux; Android 6.0.1; Moto G (4) Build/MPJ24.139-64) AppleWebKit/537.36 (KHTML, like Gecko) Chrome/58.0.3029.81 Mobile Safari/537.36 PTST/1
Accept: text/html,application/xhtml+xml,application/xml;q=0.9,image/avif,image/webp,image/apng,*/*;q=0.8,application/signed-exchange;v=b3;q=0.9
Sec-Fetch-Site: cross-site
Sec-Fetch-Mode: navigate
Sec-Fetch-Dest: iframe
Referer: https://js.stripe.com/
Accept-Encoding: gzip, deflate, br
Accept-Language: en-US,en;q=0.9
----
--Response 
HTTP/1.1 200
content-type: text/html; charset=utf-8
content-length: 930
last-modified: Thu, 17 Mar 2022 19:03:12 GMT
accept-ranges: bytes
server: Cloudfront
x-content-type-options: nosniff
content-security-policy: base-uri 'none'; connect-src https://m.stripe.network https://m.stripe.com; default-src 'none'; font-src https://m.stripe.network https://fonts.gstatic.com; form-action 'none'; frame-src https://m.stripe.network https://js.stripe.com; img-src https://m.stripe.network https://m.stripe.com https://b.stripecdn.com; script-src https://m.stripe.network 'sha256-e/Jqu4k9Gk1ZCWO6StAsfhF3i7qgIwfuitaD1g9DyvE='; style-src https://m.stripe.network; report-uri https://q.stripe.com/csp-report
date: Fri, 02 Sep 2022 08:14:03 GMT
cache-control: max-age=300, public
etag: \"fc2e029628f163bb59adc6fa5a31161c\"
vary: Accept-Encoding
x-cache: Hit from cloudfront
via: 1.1 fc69a025b8d31536c9f86f29f3d9a032.cloudfront.net (CloudFront)
x-amz-cf-pop: LAX3-C3
x-amz-cf-id: 78uKaP93UyXyxrPfZ9psNwX_A1bzf5h7AuldtDV_7IDoE1XXlMw6GQ==
age: 125
----
--Request 
GET https://m.stripe.network/out-4.5.42.js
Host: m.stripe.network
sec-ch-ua: \" Not A;Brand\";v=\"99\", \"Chromium\";v=\"90\"
sec-ch-ua-mobile: ?0
User-Agent: Mozilla/5.0 (Linux; Android 6.0.1; Moto G (4) Build/MPJ24.139-64) AppleWebKit/537.36 (KHTML, like Gecko) Chrome/58.0.3029.81 Mobile Safari/537.36 PTST/1
Accept: */*
Sec-Fetch-Site: same-origin
Sec-Fetch-Mode: no-cors
Sec-Fetch-Dest: script
Referer: https://m.stripe.network/inner.html
Accept-Encoding: gzip, deflate, br
Accept-Language: en-US,en;q=0.9
----
--Response 
HTTP/1.1 200
content-type: text/javascript; charset=utf-8
last-modified: Thu, 17 Mar 2022 19:03:12 GMT
server: Cloudfront
x-content-type-options: nosniff
content-encoding: br
date: Fri, 02 Sep 2022 08:14:37 GMT
cache-control: max-age=300, public
etag: W/\"21df7244385e5c0bdf32da01d0dad6c0\"
vary: Accept-Encoding
x-cache: Hit from cloudfront
via: 1.1 fc69a025b8d31536c9f86f29f3d9a032.cloudfront.net (CloudFront)
x-amz-cf-pop: LAX3-C3
x-amz-cf-id: ObKB9N_pXn8PCgoMN2Wux9Ors6gmpcguECib8eT6uviBZNxwFmrvDA==
age: 88
----

