--Request 
POST https://www.google-analytics.com/j/collect?v=1&_v=j96&a=1579882328&t=pageview&_s=1&dl=https%3A%2F%2Fwww.cavisson.com%2Fcontact-us%2F&ul=en-us&de=UTF-8&dt=Contact%20Us%20-%20Performance%20Testing%2C%20Monitoring%20%26%20Diagnostics%20Software%20%7C%20Cavisson&sd=24-bit&sr=1313x489&vp=1298x361&je=0&_u=AACAAEABAAAAAC~&jid=&gjid=&cid=1552355994.1662106560&tid=UA-77809548-1&_gid=1446665977.1662106560&_slc=1&z=1767478467
Host: www.google-analytics.com
sec-ch-ua: \" Not A;Brand\";v=\"99\", \"Chromium\";v=\"90\"
sec-ch-ua-mobile: ?0
User-Agent: Mozilla/5.0 (Linux; Android 6.0.1; Moto G (4) Build/MPJ24.139-64) AppleWebKit/537.36 (KHTML, like Gecko) Chrome/58.0.3029.81 Mobile Safari/537.36 PTST/1
Content-Type: text/plain
Accept: */*
Origin: https://www.cavisson.com
Sec-Fetch-Site: cross-site
Sec-Fetch-Mode: cors
Sec-Fetch-Dest: empty
Accept-Encoding: gzip, deflate, br
Accept-Language: en-US,en;q=0.9
----
--Response 
HTTP/1.1 200
access-control-allow-origin: https://www.cavisson.com
date: Fri, 02 Sep 2022 08:16:16 GMT
pragma: no-cache
expires: Fri, 01 Jan 1990 00:00:00 GMT
cache-control: no-cache, no-store, must-revalidate
last-modified: Sun, 17 May 1998 03:00:00 GMT
access-control-allow-credentials: true
x-content-type-options: nosniff
content-type: text/plain
cross-origin-resource-policy: cross-origin
server: Golfe2
content-length: 2
alt-svc: h3=\":443\"; ma=2592000,h3-29=\":443\"; ma=2592000,h3-Q050=\":443\"; ma=2592000,h3-Q046=\":443\"; ma=2592000,h3-Q043=\":443\"; ma=2592000,quic=\":443\"; ma=2592000; v=\"46,43\"
----
--Request 
GET https://www.googleadservices.com/pagead/conversion_async.js
Host: www.googleadservices.com
sec-ch-ua: \" Not A;Brand\";v=\"99\", \"Chromium\";v=\"90\"
sec-ch-ua-mobile: ?0
User-Agent: Mozilla/5.0 (Linux; Android 6.0.1; Moto G (4) Build/MPJ24.139-64) AppleWebKit/537.36 (KHTML, like Gecko) Chrome/58.0.3029.81 Mobile Safari/537.36 PTST/1
Accept: */*
Sec-Fetch-Site: cross-site
Sec-Fetch-Mode: no-cors
Sec-Fetch-Dest: script
Accept-Encoding: gzip, deflate, br
Accept-Language: en-US,en;q=0.9
----
--Response 
HTTP/1.1 200
p3p: policyref=\"https://www.googleadservices.com/pagead/p3p.xml\", CP=\"NOI DEV PSA PSD IVA IVD OTP OUR OTR IND OTC\"
timing-allow-origin: *
cross-origin-resource-policy: cross-origin
vary: Accept-Encoding
date: Fri, 02 Sep 2022 08:16:16 GMT
expires: Fri, 02 Sep 2022 08:16:16 GMT
cache-control: private, max-age=3600
content-type: text/javascript; charset=UTF-8
etag: 5833103075673869334
x-content-type-options: nosniff
content-disposition: attachment; filename=\"f.txt\"
content-encoding: gzip
server: cafe
content-length: 15694
x-xss-protection: 0
alt-svc: h3=\":443\"; ma=2592000,h3-29=\":443\"; ma=2592000,h3-Q050=\":443\"; ma=2592000,h3-Q046=\":443\"; ma=2592000,h3-Q043=\":443\"; ma=2592000,quic=\":443\"; ma=2592000; v=\"46,43\"
----
--Request 
GET https://www.gstatic.com/wcm/loader.js
Host: www.gstatic.com
sec-ch-ua: \" Not A;Brand\";v=\"99\", \"Chromium\";v=\"90\"
sec-ch-ua-mobile: ?0
User-Agent: Mozilla/5.0 (Linux; Android 6.0.1; Moto G (4) Build/MPJ24.139-64) AppleWebKit/537.36 (KHTML, like Gecko) Chrome/58.0.3029.81 Mobile Safari/537.36 PTST/1
Accept: */*
Sec-Fetch-Site: cross-site
Sec-Fetch-Mode: no-cors
Sec-Fetch-Dest: script
Accept-Encoding: gzip, deflate, br
Accept-Language: en-US,en;q=0.9
----
--Response 
HTTP/1.1 200
accept-ranges: bytes
vary: Accept-Encoding
content-encoding: br
cross-origin-resource-policy: cross-origin
cross-origin-opener-policy-report-only: same-origin; report-to=\"static-on-bigtable\"
report-to: {\"group\":\"static-on-bigtable\",\"max_age\":2592000,\"endpoints\":[{\"url\":\"https://csp.withgoogle.com/csp/report-to/static-on-bigtable\"}]}
content-length: 1339
x-content-type-options: nosniff
server: sffe
x-xss-protection: 0
date: Fri, 02 Sep 2022 07:30:36 GMT
expires: Fri, 02 Sep 2022 08:30:36 GMT
cache-control: public, max-age=3600
age: 2740
last-modified: Mon, 15 Mar 2021 16:45:00 GMT
content-type: text/javascript
alt-svc: h3=\":443\"; ma=2592000,h3-29=\":443\"; ma=2592000,h3-Q050=\":443\"; ma=2592000,h3-Q046=\":443\"; ma=2592000,h3-Q043=\":443\"; ma=2592000,quic=\":443\"; ma=2592000; v=\"46,43\"
----
--Request 
GET https://www.google.com/recaptcha/api2/anchor?ar=1&k=6Ldt8qEUAAAAAH-QhEOUuqZ3-IqCap0nlTw6xrli&co=aHR0cHM6Ly93d3cuY2F2aXNzb24uY29tOjQ0Mw..&hl=en&v=mBwkfBPLFWI0ygbsp8eJNMkw&size=normal&cb=glkohmqfgl99
Host: www.google.com
Upgrade-Insecure-Requests: 1
User-Agent: Mozilla/5.0 (Linux; Android 6.0.1; Moto G (4) Build/MPJ24.139-64) AppleWebKit/537.36 (KHTML, like Gecko) Chrome/58.0.3029.81 Mobile Safari/537.36 PTST/1
Accept: text/html,application/xhtml+xml,application/xml;q=0.9,image/avif,image/webp,image/apng,*/*;q=0.8,application/signed-exchange;v=b3;q=0.9
Sec-Fetch-Site: cross-site
Sec-Fetch-Mode: navigate
Sec-Fetch-Dest: iframe
Accept-Encoding: gzip, deflate, br
Accept-Language: en-US,en;q=0.9
----
--Response 
HTTP/1.1 200
cross-origin-resource-policy: cross-origin
cross-origin-embedder-policy: require-corp
report-to: {\"group\":\"recaptcha\",\"max_age\":2592000,\"endpoints\":[{\"url\":\"https://csp.withgoogle.com/csp/report-to/recaptcha\"}]}
content-type: text/html; charset=utf-8
cache-control: no-cache, no-store, max-age=0, must-revalidate
pragma: no-cache
expires: Mon, 01 Jan 1990 00:00:00 GMT
date: Fri, 02 Sep 2022 08:16:16 GMT
content-security-policy: script-src 'nonce-ixQl6uZYKUqNl9huDmSrDA' 'unsafe-inline' 'strict-dynamic' https: http: 'unsafe-eval';object-src 'none';base-uri 'self';report-uri https://csp.withgoogle.com/csp/recaptcha/1
content-encoding: gzip
x-content-type-options: nosniff
x-xss-protection: 1; mode=block
content-length: 22619
server: GSE
alt-svc: h3=\":443\"; ma=2592000,h3-29=\":443\"; ma=2592000,h3-Q050=\":443\"; ma=2592000,h3-Q046=\":443\"; ma=2592000,h3-Q043=\":443\"; ma=2592000,quic=\":443\"; ma=2592000; v=\"46,43\"
----

