--Request 
GET https://www.google.com/pagead/attribution/wcm?cc=ZZ&dn=16503197412&cl=irwhCLex05cBEOWDzZMD
Host: www.google.com
sec-ch-ua: \" Not A;Brand\";v=\"99\", \"Chromium\";v=\"90\"
sec-ch-ua-mobile: ?0
User-Agent: Mozilla/5.0 (Linux; Android 6.0.1; Moto G (4) Build/MPJ24.139-64) AppleWebKit/537.36 (KHTML, like Gecko) Chrome/58.0.3029.81 Mobile Safari/537.36 PTST/1
Accept: */*
Origin: null
Sec-Fetch-Site: cross-site
Sec-Fetch-Mode: cors
Sec-Fetch-Dest: empty
Accept-Encoding: gzip, deflate, br
Accept-Language: en-US,en;q=0.9
----
--Response 
HTTP/1.1 200
p3p: policyref=\"https://www.googleadservices.com/pagead/p3p.xml\", CP=\"NOI DEV PSA PSD IVA IVD OTP OUR OTR IND OTC\"
timing-allow-origin: *
cross-origin-resource-policy: cross-origin
content-type: application/json; charset=UTF-8
access-control-allow-origin: null
access-control-allow-credentials: true
x-content-type-options: nosniff
content-disposition: attachment; filename=\"f.txt\"
content-encoding: gzip
date: Fri, 02 Sep 2022 08:18:32 GMT
server: cafe
cache-control: private
content-length: 87
x-xss-protection: 0
alt-svc: h3=\":443\"; ma=2592000,h3-29=\":443\"; ma=2592000,h3-Q050=\":443\"; ma=2592000,h3-Q046=\":443\"; ma=2592000,h3-Q043=\":443\"; ma=2592000,quic=\":443\"; ma=2592000; v=\"46,43\"
----
--Request 
GET https://www.google.com/recaptcha/api2/webworker.js?hl=en&v=mBwkfBPLFWI0ygbsp8eJNMkw
Host: www.google.com
sec-ch-ua: \" Not A;Brand\";v=\"99\", \"Chromium\";v=\"90\"
sec-ch-ua-mobile: ?0
User-Agent: Mozilla/5.0 (Linux; Android 6.0.1; Moto G (4) Build/MPJ24.139-64) AppleWebKit/537.36 (KHTML, like Gecko) Chrome/58.0.3029.81 Mobile Safari/537.36 PTST/1
Accept: */*
Sec-Fetch-Site: same-origin
Sec-Fetch-Mode: same-origin
Sec-Fetch-Dest: worker
Referer: https://www.google.com/recaptcha/api2/anchor?ar=1&k=6Ldt8qEUAAAAAH-QhEOUuqZ3-IqCap0nlTw6xrli&co=aHR0cHM6Ly93d3cuY2F2aXNzb24uY29tOjQ0Mw..&hl=en&v=mBwkfBPLFWI0ygbsp8eJNMkw&size=normal&cb=249g4n86nvxj
Accept-Encoding: gzip, deflate, br
Accept-Language: en-US,en;q=0.9
----
--Response 
HTTP/1.1 200
expires: Fri, 02 Sep 2022 08:18:17 GMT
date: Fri, 02 Sep 2022 08:18:17 GMT
cache-control: private, max-age=300
cross-origin-embedder-policy: require-corp
report-to: {\"group\":\"recaptcha\",\"max_age\":2592000,\"endpoints\":[{\"url\":\"https://csp.withgoogle.com/csp/report-to/recaptcha\"}]}
content-type: text/javascript; charset=UTF-8
content-encoding: gzip
x-content-type-options: nosniff
x-frame-options: SAMEORIGIN
content-security-policy: frame-ancestors 'self'
x-xss-protection: 1; mode=block
content-length: 112
server: GSE
alt-svc: h3=\":443\"; ma=2592000,h3-29=\":443\"; ma=2592000,h3-Q050=\":443\"; ma=2592000,h3-Q046=\":443\"; ma=2592000,h3-Q043=\":443\"; ma=2592000,quic=\":443\"; ma=2592000; v=\"46,43\"
----
--Request 
GET https://www.googleadservices.com/pagead/conversion/846414309/wcm?cc=ZZ&dn=18007016125&cl=9penCM3u55cBEOWDzZMD&ref=https%3A%2F%2Fwww.cavisson.com%2F&ct_eid=2
Host: www.googleadservices.com
sec-ch-ua: \" Not A;Brand\";v=\"99\", \"Chromium\";v=\"90\"
sec-ch-ua-mobile: ?0
User-Agent: Mozilla/5.0 (Linux; Android 6.0.1; Moto G (4) Build/MPJ24.139-64) AppleWebKit/537.36 (KHTML, like Gecko) Chrome/58.0.3029.81 Mobile Safari/537.36 PTST/1
Accept: */*
Origin: https://www.cavisson.com
Sec-Fetch-Site: cross-site
Sec-Fetch-Mode: cors
Sec-Fetch-Dest: empty
Accept-Encoding: gzip, deflate, br
Accept-Language: en-US,en;q=0.9
----
--Response 
HTTP/1.1 302
p3p: policyref=\"https://www.googleadservices.com/pagead/p3p.xml\", CP=\"NOI DEV PSA PSD IVA IVD OTP OUR OTR IND OTC\"
timing-allow-origin: *
cross-origin-resource-policy: cross-origin
location: https://www.google.com/pagead/attribution/wcm?cc=ZZ&dn=18007016125&cl=9penCM3u55cBEOWDzZMD
access-control-allow-origin: https://www.cavisson.com
access-control-allow-credentials: true
content-type: text/html; charset=UTF-8
x-content-type-options: nosniff
date: Fri, 02 Sep 2022 08:18:32 GMT
server: cafe
content-length: 0
x-xss-protection: 0
alt-svc: h3=\":443\"; ma=2592000,h3-29=\":443\"; ma=2592000,h3-Q050=\":443\"; ma=2592000,h3-Q046=\":443\"; ma=2592000,h3-Q043=\":443\"; ma=2592000,quic=\":443\"; ma=2592000; v=\"46,43\"
----
--Request 
GET https://app.artibot.ai/chat_window.4514.css
Host: app.artibot.ai
sec-ch-ua: \" Not A;Brand\";v=\"99\", \"Chromium\";v=\"90\"
sec-ch-ua-mobile: ?0
User-Agent: Mozilla/5.0 (Linux; Android 6.0.1; Moto G (4) Build/MPJ24.139-64) AppleWebKit/537.36 (KHTML, like Gecko) Chrome/58.0.3029.81 Mobile Safari/537.36 PTST/1
Accept: text/css,*/*;q=0.1
Sec-Fetch-Site: same-origin
Sec-Fetch-Mode: no-cors
Sec-Fetch-Dest: style
Referer: https://app.artibot.ai/chat-window?i=948c4b2e-cf5d-4d58-9e77-2b636e5bbd98&cbv=12034483-9bfe-47a8-bbfa-ada6398deb1f&v=20&cp=https%3A%2F%2Fwww.cavisson.com%2Fnetstorm-load-testing-solution%2F&th=light&em=true&mo=true&sh=false&tb=true
Accept-Encoding: gzip, deflate, br
Accept-Language: en-US,en;q=0.9
----
--Response 
HTTP/1.1 200
content-type: text/css; charset=utf-8
date: Sat, 13 Aug 2022 05:35:41 GMT
cache-control: public, max-age=31536000
last-modified: Tue, 12 Oct 2021 19:43:25 GMT
x-amz-version-id: null
etag: W/\"a802632c00ec3f2db3bf7622090aec7e\"
server: AmazonS3
content-encoding: gzip
vary: Accept-Encoding
x-cache: Hit from cloudfront
via: 1.1 f649cab3bdd2f34f96be9ae3cf2c347c.cloudfront.net (CloudFront)
x-amz-cf-pop: LAX3-C4
x-amz-cf-id: yhYa1bMJ98auOZ7BGNynoxcv8WwMcoaKdm4hDOrf0GJ_7A3fr_DiTg==
age: 1737757
----
--Request 
GET https://js.stripe.com/v3/
Host: js.stripe.com
sec-ch-ua: \" Not A;Brand\";v=\"99\", \"Chromium\";v=\"90\"
sec-ch-ua-mobile: ?0
User-Agent: Mozilla/5.0 (Linux; Android 6.0.1; Moto G (4) Build/MPJ24.139-64) AppleWebKit/537.36 (KHTML, like Gecko) Chrome/58.0.3029.81 Mobile Safari/537.36 PTST/1
Accept: */*
Sec-Fetch-Site: cross-site
Sec-Fetch-Mode: no-cors
Sec-Fetch-Dest: script
Referer: https://app.artibot.ai/
Accept-Encoding: gzip, deflate, br
Accept-Language: en-US,en;q=0.9
----
--Response 
HTTP/1.1 200
content-type: text/javascript; charset=utf-8
last-modified: Thu, 01 Sep 2022 18:29:23 GMT
server: Cloudfront
access-control-allow-origin: *
x-content-type-options: nosniff
timing-allow-origin: *
content-encoding: br
date: Fri, 02 Sep 2022 08:18:17 GMT
cache-control: max-age=60
etag: W/\"7cd828014a55704f455f9fbe533089ac\"
vary: Accept-Encoding
x-cache: Hit from cloudfront
via: 1.1 12a5bcdb54ede5fbaec3241f3c798938.cloudfront.net (CloudFront)
x-amz-cf-pop: LAX3-C4
x-amz-cf-id: mzljbF4YQ62456bF--q9iO3lT_dCWLuPbAz9csK_ZevPmaYZsw0-pA==
age: 40
----
--Request 
GET https://app.artibot.ai/chat_window.4514.js
Host: app.artibot.ai
sec-ch-ua: \" Not A;Brand\";v=\"99\", \"Chromium\";v=\"90\"
sec-ch-ua-mobile: ?0
User-Agent: Mozilla/5.0 (Linux; Android 6.0.1; Moto G (4) Build/MPJ24.139-64) AppleWebKit/537.36 (KHTML, like Gecko) Chrome/58.0.3029.81 Mobile Safari/537.36 PTST/1
Accept: */*
Sec-Fetch-Site: same-origin
Sec-Fetch-Mode: no-cors
Sec-Fetch-Dest: script
Referer: https://app.artibot.ai/chat-window?i=948c4b2e-cf5d-4d58-9e77-2b636e5bbd98&cbv=12034483-9bfe-47a8-bbfa-ada6398deb1f&v=20&cp=https%3A%2F%2Fwww.cavisson.com%2Fnetstorm-load-testing-solution%2F&th=light&em=true&mo=true&sh=false&tb=true
Accept-Encoding: gzip, deflate, br
Accept-Language: en-US,en;q=0.9
----
--Response 
HTTP/1.1 200
content-type: application/javascript; charset=utf-8
date: Sat, 13 Aug 2022 05:35:41 GMT
cache-control: public, max-age=31536000
last-modified: Tue, 12 Oct 2021 19:43:23 GMT
x-amz-version-id: null
etag: W/\"acb5538a812851913e40c77db031e30e\"
server: AmazonS3
content-encoding: gzip
vary: Accept-Encoding
x-cache: Hit from cloudfront
via: 1.1 f649cab3bdd2f34f96be9ae3cf2c347c.cloudfront.net (CloudFront)
x-amz-cf-pop: LAX3-C4
x-amz-cf-id: WkJ24zhhivVTch8ku1d8NW1gl8_2MjGX1ms-E0DRPWbgA1kEORF1UQ==
age: 1737757
----
--Request 
GET https://fonts.googleapis.com/css?family=Source+Sans+Pro:300,400,400i,600,700
Host: fonts.googleapis.com
sec-ch-ua: \" Not A;Brand\";v=\"99\", \"Chromium\";v=\"90\"
sec-ch-ua-mobile: ?0
User-Agent: Mozilla/5.0 (Linux; Android 6.0.1; Moto G (4) Build/MPJ24.139-64) AppleWebKit/537.36 (KHTML, like Gecko) Chrome/58.0.3029.81 Mobile Safari/537.36 PTST/1
Accept: text/css,*/*;q=0.1
Sec-Fetch-Site: cross-site
Sec-Fetch-Mode: no-cors
Sec-Fetch-Dest: style
Referer: https://app.artibot.ai/
Accept-Encoding: gzip, deflate, br
Accept-Language: en-US,en;q=0.9
----
--Response 
HTTP/1.1 200
content-type: text/css; charset=utf-8
access-control-allow-origin: *
timing-allow-origin: *
link: <https://fonts.gstatic.com>; rel=preconnect; crossorigin
expires: Fri, 02 Sep 2022 08:18:17 GMT
date: Fri, 02 Sep 2022 08:18:17 GMT
cache-control: private, max-age=86400, stale-while-revalidate=604800
last-modified: Fri, 02 Sep 2022 08:18:17 GMT
cross-origin-resource-policy: cross-origin
cross-origin-opener-policy: same-origin-allow-popups
content-encoding: gzip
server: ESF
x-xss-protection: 0
x-frame-options: SAMEORIGIN
x-content-type-options: nosniff
alt-svc: h3=\":443\"; ma=2592000,h3-29=\":443\"; ma=2592000,h3-Q050=\":443\"; ma=2592000,h3-Q046=\":443\"; ma=2592000,h3-Q043=\":443\"; ma=2592000,quic=\":443\"; ma=2592000; v=\"46,43\"
----
--Request 
GET https://fonts.googleapis.com/css?family=Source+Serif+Pro:300,400,400i,600,700
Host: fonts.googleapis.com
sec-ch-ua: \" Not A;Brand\";v=\"99\", \"Chromium\";v=\"90\"
sec-ch-ua-mobile: ?0
User-Agent: Mozilla/5.0 (Linux; Android 6.0.1; Moto G (4) Build/MPJ24.139-64) AppleWebKit/537.36 (KHTML, like Gecko) Chrome/58.0.3029.81 Mobile Safari/537.36 PTST/1
Accept: text/css,*/*;q=0.1
Sec-Fetch-Site: cross-site
Sec-Fetch-Mode: no-cors
Sec-Fetch-Dest: style
Referer: https://app.artibot.ai/
Accept-Encoding: gzip, deflate, br
Accept-Language: en-US,en;q=0.9
----
--Response 
HTTP/1.1 200
content-type: text/css; charset=utf-8
access-control-allow-origin: *
timing-allow-origin: *
link: <https://fonts.gstatic.com>; rel=preconnect; crossorigin
expires: Fri, 02 Sep 2022 08:18:17 GMT
date: Fri, 02 Sep 2022 08:18:17 GMT
cache-control: private, max-age=86400, stale-while-revalidate=604800
last-modified: Fri, 02 Sep 2022 08:18:17 GMT
cross-origin-resource-policy: cross-origin
cross-origin-opener-policy: same-origin-allow-popups
content-encoding: gzip
server: ESF
x-xss-protection: 0
x-frame-options: SAMEORIGIN
x-content-type-options: nosniff
alt-svc: h3=\":443\"; ma=2592000,h3-29=\":443\"; ma=2592000,h3-Q050=\":443\"; ma=2592000,h3-Q046=\":443\"; ma=2592000,h3-Q043=\":443\"; ma=2592000,quic=\":443\"; ma=2592000; v=\"46,43\"
----
--Request 
GET https://fonts.googleapis.com/css?family=Space+Mono:300,400,400i,600,700
Host: fonts.googleapis.com
sec-ch-ua: \" Not A;Brand\";v=\"99\", \"Chromium\";v=\"90\"
sec-ch-ua-mobile: ?0
User-Agent: Mozilla/5.0 (Linux; Android 6.0.1; Moto G (4) Build/MPJ24.139-64) AppleWebKit/537.36 (KHTML, like Gecko) Chrome/58.0.3029.81 Mobile Safari/537.36 PTST/1
Accept: text/css,*/*;q=0.1
Sec-Fetch-Site: cross-site
Sec-Fetch-Mode: no-cors
Sec-Fetch-Dest: style
Referer: https://app.artibot.ai/
Accept-Encoding: gzip, deflate, br
Accept-Language: en-US,en;q=0.9
----
--Response 
HTTP/1.1 200
content-type: text/css; charset=utf-8
access-control-allow-origin: *
timing-allow-origin: *
link: <https://fonts.gstatic.com>; rel=preconnect; crossorigin
expires: Fri, 02 Sep 2022 08:18:17 GMT
date: Fri, 02 Sep 2022 08:18:17 GMT
cache-control: private, max-age=86400, stale-while-revalidate=604800
last-modified: Fri, 02 Sep 2022 08:18:17 GMT
cross-origin-resource-policy: cross-origin
cross-origin-opener-policy: same-origin-allow-popups
content-encoding: gzip
server: ESF
x-xss-protection: 0
x-frame-options: SAMEORIGIN
x-content-type-options: nosniff
alt-svc: h3=\":443\"; ma=2592000,h3-29=\":443\"; ma=2592000,h3-Q050=\":443\"; ma=2592000,h3-Q046=\":443\"; ma=2592000,h3-Q043=\":443\"; ma=2592000,quic=\":443\"; ma=2592000; v=\"46,43\"
----
--Request 
GET https://www.google.com/recaptcha/api2/bframe?hl=en&v=mBwkfBPLFWI0ygbsp8eJNMkw&k=6Ldt8qEUAAAAAH-QhEOUuqZ3-IqCap0nlTw6xrli
Host: www.google.com
Upgrade-Insecure-Requests: 1
User-Agent: Mozilla/5.0 (Linux; Android 6.0.1; Moto G (4) Build/MPJ24.139-64) AppleWebKit/537.36 (KHTML, like Gecko) Chrome/58.0.3029.81 Mobile Safari/537.36 PTST/1
Accept: text/html,application/xhtml+xml,application/xml;q=0.9,image/avif,image/webp,image/apng,*/*;q=0.8,application/signed-exchange;v=b3;q=0.9
Sec-Fetch-Site: cross-site
Sec-Fetch-Mode: navigate
Sec-Fetch-Dest: iframe
Accept-Encoding: gzip, deflate, br
Accept-Language: en-US,en;q=0.9
----
--Response 
HTTP/1.1 200
cross-origin-resource-policy: cross-origin
cross-origin-embedder-policy: require-corp
report-to: {\"group\":\"recaptcha\",\"max_age\":2592000,\"endpoints\":[{\"url\":\"https://csp.withgoogle.com/csp/report-to/recaptcha\"}]}
content-type: text/html; charset=utf-8
cache-control: no-cache, no-store, max-age=0, must-revalidate
pragma: no-cache
expires: Mon, 01 Jan 1990 00:00:00 GMT
date: Fri, 02 Sep 2022 08:18:32 GMT
content-security-policy: script-src 'nonce-4fqRD1ex5v1vkx2y-Lvo0g' 'unsafe-inline' 'strict-dynamic' https: http: 'unsafe-eval';object-src 'none';base-uri 'self';report-uri https://csp.withgoogle.com/csp/recaptcha/1
content-encoding: gzip
x-content-type-options: nosniff
x-xss-protection: 1; mode=block
content-length: 1196
server: GSE
alt-svc: h3=\":443\"; ma=2592000,h3-29=\":443\"; ma=2592000,h3-Q050=\":443\"; ma=2592000,h3-Q046=\":443\"; ma=2592000,h3-Q043=\":443\"; ma=2592000,quic=\":443\"; ma=2592000; v=\"46,43\"
----

