--Request 
POST https://www.google.com/gen_204?atyp=i&ei=czoQY7LWF-XgkPIPlIug-AY&vet=10ahUKEwjy24z_5fL5AhVlMEQIHZQFCG8Q470GCB0..s&zx=1662007925350
Host: www.google.com
sec-ch-ua: \" Not A;Brand\";v=\"99\", \"Chromium\";v=\"90\"
sec-ch-ua-mobile: ?0
User-Agent: Mozilla/5.0 (Linux; Android 6.0.1; Moto G (4) Build/MPJ24.139-64) AppleWebKit/537.36 (KHTML, like Gecko) Chrome/58.0.3029.81 Mobile Safari/537.36 PTST/1
Content-Type: text/plain;charset=UTF-8
Accept: */*
Origin: https://www.google.com
X-Client-Data: CMyMywE=
Sec-Fetch-Site: same-origin
Sec-Fetch-Mode: no-cors
Sec-Fetch-Dest: empty
Referer: https://www.google.com/
Accept-Encoding: gzip, deflate, br
Accept-Language: en-US,en;q=0.9
Cookie: 1P_JAR=2022-09-01-04; AEC=AakniGNssP8ByOIxifpMNT2VFdP1cx_X5lK9T_p4XI7VfxCb-vU60xaEXA; NID=511=TqdUiuvRwq6euRB0XMdjrF5ziFcOodAmrOL-iYGOhFGLiuvv2AGqJ9vrtaOXAFPKGRi7G9i308_jGVGt2vz3pf6qTZEkm40tdWdJ2JxVgP5jRhpWxcBOQioik-HEEZP170yo-B9AYwliQhL_64cPhiYIHeUlzMlgbVXPfdppFm0
----
--Response 
HTTP/1.1 204
content-type: text/html; charset=UTF-8
date: Thu, 01 Sep 2022 04:52:05 GMT
server: gws
content-length: 0
x-xss-protection: 0
x-frame-options: SAMEORIGIN
alt-svc: h3=\":443\"; ma=2592000,h3-29=\":443\"; ma=2592000,h3-Q050=\":443\"; ma=2592000,h3-Q046=\":443\"; ma=2592000,h3-Q043=\":443\"; ma=2592000,quic=\":443\"; ma=2592000; v=\"46,43\"
----

